TrakPro Version 4.51 ASCII Data File

Model:	P-Trak
Model Number:	8525
Serial Number:	8525-08041006
Test ID:	001
Test Abbreviation:	
Start Date:	02/07/2013
Start Time:	08:48:00
Duration (dd:hh:mm:ss):	0:00:54:00
Time constant (seconds):	0
Log Interval (mm:ss):	00:01
Number of points:	3240
Notes:	

Statistics	Channel:	Pt Conc
	Units:	pt/cc
	Average:	5201
	Minimum:	3080
	Time of Minimum:	09:29:36
	Date of Minimum:	02/07/2013
	Maximum:	7280
	Time of Maximum:	09:01:12
	Date of Maximum:	02/07/2013

Calibration	Sensor:	Pt Conc
	Cal. date	19/10/2010

Date	Time	Pt Conc
dd/MM/yyyy	hh:mm:ss	pt/cc
02/07/2013	08:48:01	6120
02/07/2013	08:48:02	6120
02/07/2013	08:48:03	6030
02/07/2013	08:48:04	6140
02/07/2013	08:48:05	6130
02/07/2013	08:48:06	6190
02/07/2013	08:48:07	6110
02/07/2013	08:48:08	6200
02/07/2013	08:48:09	6220
02/07/2013	08:48:10	6130
02/07/2013	08:48:11	6130
02/07/2013	08:48:12	6330
02/07/2013	08:48:13	6120
02/07/2013	08:48:14	6100
02/07/2013	08:48:15	6170
02/07/2013	08:48:16	6110
02/07/2013	08:48:17	6070
02/07/2013	08:48:18	6140
02/07/2013	08:48:19	5980
02/07/2013	08:48:20	6140
02/07/2013	08:48:21	6090
02/07/2013	08:48:22	6110
02/07/2013	08:48:23	6180
02/07/2013	08:48:24	6080
02/07/2013	08:48:25	6160
02/07/2013	08:48:26	6130
02/07/2013	08:48:27	6190
02/07/2013	08:48:28	6090
02/07/2013	08:48:29	6210
02/07/2013	08:48:30	6180
02/07/2013	08:48:31	6020
02/07/2013	08:48:32	6200
02/07/2013	08:48:33	6070
02/07/2013	08:48:34	6090
02/07/2013	08:48:35	5980
02/07/2013	08:48:36	5850
02/07/2013	08:48:37	5960
02/07/2013	08:48:38	6090
02/07/2013	08:48:39	5970
02/07/2013	08:48:40	6090
02/07/2013	08:48:41	6010
02/07/2013	08:48:42	6010
02/07/2013	08:48:43	6080
02/07/2013	08:48:44	6170
02/07/2013	08:48:45	6180
02/07/2013	08:48:46	6180
02/07/2013	08:48:47	6010
02/07/2013	08:48:48	6180
02/07/2013	08:48:49	6180
02/07/2013	08:48:50	6160
02/07/2013	08:48:51	6110
02/07/2013	08:48:52	6190
02/07/2013	08:48:53	6140
02/07/2013	08:48:54	6330
02/07/2013	08:48:55	6310
02/07/2013	08:48:56	6220
02/07/2013	08:48:57	6190
02/07/2013	08:48:58	6150
02/07/2013	08:48:59	6110
02/07/2013	08:49:00	6190
02/07/2013	08:49:01	6190
02/07/2013	08:49:02	6090
02/07/2013	08:49:03	6100
02/07/2013	08:49:04	6040
02/07/2013	08:49:05	6090
02/07/2013	08:49:06	6230
02/07/2013	08:49:07	6220
02/07/2013	08:49:08	6140
02/07/2013	08:49:09	6270
02/07/2013	08:49:10	6360
02/07/2013	08:49:11	6290
02/07/2013	08:49:12	6310
02/07/2013	08:49:13	6440
02/07/2013	08:49:14	6350
02/07/2013	08:49:15	6310
02/07/2013	08:49:16	6460
02/07/2013	08:49:17	6660
02/07/2013	08:49:18	6560
02/07/2013	08:49:19	6420
02/07/2013	08:49:20	6370
02/07/2013	08:49:21	6390
02/07/2013	08:49:22	6190
02/07/2013	08:49:23	6000
02/07/2013	08:49:24	6370
02/07/2013	08:49:25	6420
02/07/2013	08:49:26	6310
02/07/2013	08:49:27	6370
02/07/2013	08:49:28	6490
02/07/2013	08:49:29	6460
02/07/2013	08:49:30	6480
02/07/2013	08:49:31	6480
02/07/2013	08:49:32	6440
02/07/2013	08:49:33	6370
02/07/2013	08:49:34	6410
02/07/2013	08:49:35	6350
02/07/2013	08:49:36	6230
02/07/2013	08:49:37	6380
02/07/2013	08:49:38	6300
02/07/2013	08:49:39	6250
02/07/2013	08:49:40	6290
02/07/2013	08:49:41	6240
02/07/2013	08:49:42	6250
02/07/2013	08:49:43	6040
02/07/2013	08:49:44	6270
02/07/2013	08:49:45	6280
02/07/2013	08:49:46	6170
02/07/2013	08:49:47	6220
02/07/2013	08:49:48	6290
02/07/2013	08:49:49	6190
02/07/2013	08:49:50	6200
02/07/2013	08:49:51	6260
02/07/2013	08:49:52	6310
02/07/2013	08:49:53	6290
02/07/2013	08:49:54	6180
02/07/2013	08:49:55	6190
02/07/2013	08:49:56	6050
02/07/2013	08:49:57	5900
02/07/2013	08:49:58	5990
02/07/2013	08:49:59	6010
02/07/2013	08:50:00	6120
02/07/2013	08:50:01	6200
02/07/2013	08:50:02	6140
02/07/2013	08:50:03	6230
02/07/2013	08:50:04	6230
02/07/2013	08:50:05	6310
02/07/2013	08:50:06	6340
02/07/2013	08:50:07	6270
02/07/2013	08:50:08	6270
02/07/2013	08:50:09	6330
02/07/2013	08:50:10	6390
02/07/2013	08:50:11	6290
02/07/2013	08:50:12	6370
02/07/2013	08:50:13	6280
02/07/2013	08:50:14	6320
02/07/2013	08:50:15	6270
02/07/2013	08:50:16	6240
02/07/2013	08:50:17	6210
02/07/2013	08:50:18	6240
02/07/2013	08:50:19	6190
02/07/2013	08:50:20	6280
02/07/2013	08:50:21	6330
02/07/2013	08:50:22	6360
02/07/2013	08:50:23	6400
02/07/2013	08:50:24	6360
02/07/2013	08:50:25	6390
02/07/2013	08:50:26	6210
02/07/2013	08:50:27	6290
02/07/2013	08:50:28	6270
02/07/2013	08:50:29	6220
02/07/2013	08:50:30	6310
02/07/2013	08:50:31	6200
02/07/2013	08:50:32	6280
02/07/2013	08:50:33	6370
02/07/2013	08:50:34	6210
02/07/2013	08:50:35	6120
02/07/2013	08:50:36	6150
02/07/2013	08:50:37	6490
02/07/2013	08:50:38	6430
02/07/2013	08:50:39	6370
02/07/2013	08:50:40	6400
02/07/2013	08:50:41	6420
02/07/2013	08:50:42	6490
02/07/2013	08:50:43	6310
02/07/2013	08:50:44	6290
02/07/2013	08:50:45	6230
02/07/2013	08:50:46	6300
02/07/2013	08:50:47	5950
02/07/2013	08:50:48	5890
02/07/2013	08:50:49	6000
02/07/2013	08:50:50	6300
02/07/2013	08:50:51	6310
02/07/2013	08:50:52	6450
02/07/2013	08:50:53	6380
02/07/2013	08:50:54	6320
02/07/2013	08:50:55	6440
02/07/2013	08:50:56	6410
02/07/2013	08:50:57	6380
02/07/2013	08:50:58	6610
02/07/2013	08:50:59	6440
02/07/2013	08:51:00	6380
02/07/2013	08:51:01	6390
02/07/2013	08:51:02	6410
02/07/2013	08:51:03	6340
02/07/2013	08:51:04	6280
02/07/2013	08:51:05	6300
02/07/2013	08:51:06	6290
02/07/2013	08:51:07	6150
02/07/2013	08:51:08	6310
02/07/2013	08:51:09	6250
02/07/2013	08:51:10	6550
02/07/2013	08:51:11	6500
02/07/2013	08:51:12	6570
02/07/2013	08:51:13	6600
02/07/2013	08:51:14	6530
02/07/2013	08:51:15	6590
02/07/2013	08:51:16	6560
02/07/2013	08:51:17	6540
02/07/2013	08:51:18	6520
02/07/2013	08:51:19	6570
02/07/2013	08:51:20	6370
02/07/2013	08:51:21	6410
02/07/2013	08:51:22	6260
02/07/2013	08:51:23	6360
02/07/2013	08:51:24	6270
02/07/2013	08:51:25	6450
02/07/2013	08:51:26	6560
02/07/2013	08:51:27	6640
02/07/2013	08:51:28	6610
02/07/2013	08:51:29	6530
02/07/2013	08:51:30	6650
02/07/2013	08:51:31	6580
02/07/2013	08:51:32	6480
02/07/2013	08:51:33	6310
02/07/2013	08:51:34	6270
02/07/2013	08:51:35	6410
02/07/2013	08:51:36	6340
02/07/2013	08:51:37	6420
02/07/2013	08:51:38	6420
02/07/2013	08:51:39	6290
02/07/2013	08:51:40	6160
02/07/2013	08:51:41	6340
02/07/2013	08:51:42	6330
02/07/2013	08:51:43	6410
02/07/2013	08:51:44	6370
02/07/2013	08:51:45	6440
02/07/2013	08:51:46	6300
02/07/2013	08:51:47	6390
02/07/2013	08:51:48	6430
02/07/2013	08:51:49	6290
02/07/2013	08:51:50	6400
02/07/2013	08:51:51	6430
02/07/2013	08:51:52	6480
02/07/2013	08:51:53	6340
02/07/2013	08:51:54	6400
02/07/2013	08:51:55	6460
02/07/2013	08:51:56	6310
02/07/2013	08:51:57	6360
02/07/2013	08:51:58	6540
02/07/2013	08:51:59	6360
02/07/2013	08:52:00	6440
02/07/2013	08:52:01	6320
02/07/2013	08:52:02	6250
02/07/2013	08:52:03	6420
02/07/2013	08:52:04	6230
02/07/2013	08:52:05	6380
02/07/2013	08:52:06	6340
02/07/2013	08:52:07	6280
02/07/2013	08:52:08	6350
02/07/2013	08:52:09	6400
02/07/2013	08:52:10	6380
02/07/2013	08:52:11	6220
02/07/2013	08:52:12	6150
02/07/2013	08:52:13	6090
02/07/2013	08:52:14	6140
02/07/2013	08:52:15	5810
02/07/2013	08:52:16	5850
02/07/2013	08:52:17	5750
02/07/2013	08:52:18	5720
02/07/2013	08:52:19	5230
02/07/2013	08:52:20	5590
02/07/2013	08:52:21	5410
02/07/2013	08:52:22	5500
02/07/2013	08:52:23	5810
02/07/2013	08:52:24	6100
02/07/2013	08:52:25	6070
02/07/2013	08:52:26	6130
02/07/2013	08:52:27	6070
02/07/2013	08:52:28	5990
02/07/2013	08:52:29	6220
02/07/2013	08:52:30	6310
02/07/2013	08:52:31	6300
02/07/2013	08:52:32	6310
02/07/2013	08:52:33	6500
02/07/2013	08:52:34	6340
02/07/2013	08:52:35	6080
02/07/2013	08:52:36	6360
02/07/2013	08:52:37	6470
02/07/2013	08:52:38	6500
02/07/2013	08:52:39	6550
02/07/2013	08:52:40	6350
02/07/2013	08:52:41	6330
02/07/2013	08:52:42	6250
02/07/2013	08:52:43	6510
02/07/2013	08:52:44	6440
02/07/2013	08:52:45	6460
02/07/2013	08:52:46	6440
02/07/2013	08:52:47	6410
02/07/2013	08:52:48	6460
02/07/2013	08:52:49	6400
02/07/2013	08:52:50	6530
02/07/2013	08:52:51	6550
02/07/2013	08:52:52	6520
02/07/2013	08:52:53	6540
02/07/2013	08:52:54	6470
02/07/2013	08:52:55	6490
02/07/2013	08:52:56	6530
02/07/2013	08:52:57	6550
02/07/2013	08:52:58	6390
02/07/2013	08:52:59	6350
02/07/2013	08:53:00	6430
02/07/2013	08:53:01	6260
02/07/2013	08:53:02	6530
02/07/2013	08:53:03	6260
02/07/2013	08:53:04	6610
02/07/2013	08:53:05	6580
02/07/2013	08:53:06	6610
02/07/2013	08:53:07	6650
02/07/2013	08:53:08	6350
02/07/2013	08:53:09	6460
02/07/2013	08:53:10	6540
02/07/2013	08:53:11	6260
02/07/2013	08:53:12	6260
02/07/2013	08:53:13	6220
02/07/2013	08:53:14	6240
02/07/2013	08:53:15	6370
02/07/2013	08:53:16	6310
02/07/2013	08:53:17	6290
02/07/2013	08:53:18	6260
02/07/2013	08:53:19	6270
02/07/2013	08:53:20	6390
02/07/2013	08:53:21	6370
02/07/2013	08:53:22	6290
02/07/2013	08:53:23	6270
02/07/2013	08:53:24	6490
02/07/2013	08:53:25	6420
02/07/2013	08:53:26	6500
02/07/2013	08:53:27	6370
02/07/2013	08:53:28	6430
02/07/2013	08:53:29	6510
02/07/2013	08:53:30	6390
02/07/2013	08:53:31	6380
02/07/2013	08:53:32	6220
02/07/2013	08:53:33	6140
02/07/2013	08:53:34	6310
02/07/2013	08:53:35	6080
02/07/2013	08:53:36	6360
02/07/2013	08:53:37	6350
02/07/2013	08:53:38	6240
02/07/2013	08:53:39	6390
02/07/2013	08:53:40	6510
02/07/2013	08:53:41	6470
02/07/2013	08:53:42	6550
02/07/2013	08:53:43	6530
02/07/2013	08:53:44	6470
02/07/2013	08:53:45	6450
02/07/2013	08:53:46	6450
02/07/2013	08:53:47	6230
02/07/2013	08:53:48	6350
02/07/2013	08:53:49	6220
02/07/2013	08:53:50	6170
02/07/2013	08:53:51	6340
02/07/2013	08:53:52	6310
02/07/2013	08:53:53	5960
02/07/2013	08:53:54	5940
02/07/2013	08:53:55	6000
02/07/2013	08:53:56	6060
02/07/2013	08:53:57	6150
02/07/2013	08:53:58	5970
02/07/2013	08:53:59	5840
02/07/2013	08:54:00	6230
02/07/2013	08:54:01	6360
02/07/2013	08:54:02	6540
02/07/2013	08:54:03	6480
02/07/2013	08:54:04	6520
02/07/2013	08:54:05	6260
02/07/2013	08:54:06	6140
02/07/2013	08:54:07	6180
02/07/2013	08:54:08	5920
02/07/2013	08:54:09	5960
02/07/2013	08:54:10	6170
02/07/2013	08:54:11	6090
02/07/2013	08:54:12	5860
02/07/2013	08:54:13	6180
02/07/2013	08:54:14	6260
02/07/2013	08:54:15	6500
02/07/2013	08:54:16	6610
02/07/2013	08:54:17	6620
02/07/2013	08:54:18	6760
02/07/2013	08:54:19	6780
02/07/2013	08:54:20	6660
02/07/2013	08:54:21	6480
02/07/2013	08:54:22	6400
02/07/2013	08:54:23	6350
02/07/2013	08:54:24	6390
02/07/2013	08:54:25	6450
02/07/2013	08:54:26	6460
02/07/2013	08:54:27	6370
02/07/2013	08:54:28	6550
02/07/2013	08:54:29	6550
02/07/2013	08:54:30	6440
02/07/2013	08:54:31	6300
02/07/2013	08:54:32	6320
02/07/2013	08:54:33	6380
02/07/2013	08:54:34	6640
02/07/2013	08:54:35	6560
02/07/2013	08:54:36	6580
02/07/2013	08:54:37	6500
02/07/2013	08:54:38	6350
02/07/2013	08:54:39	6230
02/07/2013	08:54:40	6200
02/07/2013	08:54:41	6480
02/07/2013	08:54:42	6440
02/07/2013	08:54:43	6510
02/07/2013	08:54:44	6460
02/07/2013	08:54:45	6410
02/07/2013	08:54:46	6570
02/07/2013	08:54:47	6750
02/07/2013	08:54:48	6620
02/07/2013	08:54:49	6710
02/07/2013	08:54:50	6570
02/07/2013	08:54:51	6660
02/07/2013	08:54:52	6510
02/07/2013	08:54:53	6510
02/07/2013	08:54:54	6450
02/07/2013	08:54:55	6440
02/07/2013	08:54:56	6560
02/07/2013	08:54:57	6430
02/07/2013	08:54:58	6530
02/07/2013	08:54:59	6660
02/07/2013	08:55:00	6530
02/07/2013	08:55:01	6640
02/07/2013	08:55:02	6450
02/07/2013	08:55:03	6230
02/07/2013	08:55:04	6380
02/07/2013	08:55:05	6370
02/07/2013	08:55:06	6550
02/07/2013	08:55:07	6530
02/07/2013	08:55:08	6550
02/07/2013	08:55:09	6510
02/07/2013	08:55:10	6330
02/07/2013	08:55:11	6510
02/07/2013	08:55:12	6500
02/07/2013	08:55:13	6640
02/07/2013	08:55:14	6660
02/07/2013	08:55:15	6690
02/07/2013	08:55:16	6640
02/07/2013	08:55:17	6680
02/07/2013	08:55:18	6720
02/07/2013	08:55:19	6510
02/07/2013	08:55:20	6680
02/07/2013	08:55:21	6860
02/07/2013	08:55:22	6730
02/07/2013	08:55:23	6650
02/07/2013	08:55:24	6650
02/07/2013	08:55:25	6360
02/07/2013	08:55:26	6700
02/07/2013	08:55:27	6620
02/07/2013	08:55:28	6400
02/07/2013	08:55:29	6310
02/07/2013	08:55:30	6420
02/07/2013	08:55:31	6430
02/07/2013	08:55:32	6530
02/07/2013	08:55:33	6500
02/07/2013	08:55:34	6430
02/07/2013	08:55:35	6290
02/07/2013	08:55:36	6350
02/07/2013	08:55:37	6380
02/07/2013	08:55:38	6570
02/07/2013	08:55:39	6420
02/07/2013	08:55:40	6160
02/07/2013	08:55:41	5510
02/07/2013	08:55:42	5550
02/07/2013	08:55:43	5980
02/07/2013	08:55:44	6250
02/07/2013	08:55:45	6320
02/07/2013	08:55:46	6400
02/07/2013	08:55:47	6360
02/07/2013	08:55:48	6320
02/07/2013	08:55:49	6150
02/07/2013	08:55:50	6310
02/07/2013	08:55:51	6290
02/07/2013	08:55:52	6560
02/07/2013	08:55:53	6390
02/07/2013	08:55:54	6420
02/07/2013	08:55:55	6390
02/07/2013	08:55:56	6170
02/07/2013	08:55:57	6490
02/07/2013	08:55:58	6490
02/07/2013	08:55:59	6410
02/07/2013	08:56:00	6150
02/07/2013	08:56:01	6300
02/07/2013	08:56:02	6350
02/07/2013	08:56:03	6380
02/07/2013	08:56:04	6570
02/07/2013	08:56:05	6510
02/07/2013	08:56:06	6690
02/07/2013	08:56:07	6700
02/07/2013	08:56:08	6440
02/07/2013	08:56:09	6550
02/07/2013	08:56:10	6600
02/07/2013	08:56:11	6630
02/07/2013	08:56:12	6340
02/07/2013	08:56:13	6400
02/07/2013	08:56:14	6230
02/07/2013	08:56:15	6320
02/07/2013	08:56:16	6430
02/07/2013	08:56:17	6420
02/07/2013	08:56:18	6520
02/07/2013	08:56:19	6550
02/07/2013	08:56:20	6410
02/07/2013	08:56:21	6350
02/07/2013	08:56:22	6070
02/07/2013	08:56:23	5960
02/07/2013	08:56:24	6170
02/07/2013	08:56:25	6410
02/07/2013	08:56:26	5880
02/07/2013	08:56:27	6070
02/07/2013	08:56:28	6210
02/07/2013	08:56:29	6090
02/07/2013	08:56:30	6060
02/07/2013	08:56:31	5900
02/07/2013	08:56:32	6320
02/07/2013	08:56:33	6610
02/07/2013	08:56:34	6720
02/07/2013	08:56:35	6480
02/07/2013	08:56:36	6360
02/07/2013	08:56:37	6620
02/07/2013	08:56:38	6840
02/07/2013	08:56:39	6840
02/07/2013	08:56:40	6820
02/07/2013	08:56:41	6810
02/07/2013	08:56:42	6600
02/07/2013	08:56:43	6760
02/07/2013	08:56:44	6800
02/07/2013	08:56:45	6800
02/07/2013	08:56:46	6730
02/07/2013	08:56:47	6920
02/07/2013	08:56:48	6810
02/07/2013	08:56:49	6570
02/07/2013	08:56:50	6630
02/07/2013	08:56:51	6690
02/07/2013	08:56:52	6650
02/07/2013	08:56:53	6640
02/07/2013	08:56:54	6650
02/07/2013	08:56:55	6540
02/07/2013	08:56:56	6540
02/07/2013	08:56:57	6390
02/07/2013	08:56:58	6370
02/07/2013	08:56:59	6290
02/07/2013	08:57:00	6490
02/07/2013	08:57:01	6350
02/07/2013	08:57:02	6310
02/07/2013	08:57:03	6570
02/07/2013	08:57:04	6610
02/07/2013	08:57:05	6630
02/07/2013	08:57:06	6550
02/07/2013	08:57:07	6530
02/07/2013	08:57:08	6650
02/07/2013	08:57:09	6570
02/07/2013	08:57:10	6690
02/07/2013	08:57:11	6550
02/07/2013	08:57:12	6400
02/07/2013	08:57:13	6490
02/07/2013	08:57:14	6090
02/07/2013	08:57:15	6270
02/07/2013	08:57:16	6430
02/07/2013	08:57:17	6520
02/07/2013	08:57:18	6640
02/07/2013	08:57:19	6270
02/07/2013	08:57:20	5960
02/07/2013	08:57:21	6140
02/07/2013	08:57:22	6150
02/07/2013	08:57:23	6360
02/07/2013	08:57:24	6600
02/07/2013	08:57:25	6630
02/07/2013	08:57:26	6540
02/07/2013	08:57:27	6280
02/07/2013	08:57:28	6610
02/07/2013	08:57:29	6450
02/07/2013	08:57:30	6530
02/07/2013	08:57:31	6590
02/07/2013	08:57:32	6620
02/07/2013	08:57:33	6690
02/07/2013	08:57:34	6510
02/07/2013	08:57:35	6510
02/07/2013	08:57:36	6600
02/07/2013	08:57:37	6600
02/07/2013	08:57:38	6730
02/07/2013	08:57:39	6540
02/07/2013	08:57:40	6600
02/07/2013	08:57:41	6630
02/07/2013	08:57:42	6570
02/07/2013	08:57:43	6640
02/07/2013	08:57:44	6480
02/07/2013	08:57:45	6460
02/07/2013	08:57:46	6320
02/07/2013	08:57:47	6430
02/07/2013	08:57:48	6300
02/07/2013	08:57:49	6330
02/07/2013	08:57:50	6200
02/07/2013	08:57:51	6210
02/07/2013	08:57:52	6230
02/07/2013	08:57:53	6010
02/07/2013	08:57:54	6200
02/07/2013	08:57:55	6210
02/07/2013	08:57:56	6450
02/07/2013	08:57:57	6230
02/07/2013	08:57:58	6580
02/07/2013	08:57:59	6340
02/07/2013	08:58:00	6360
02/07/2013	08:58:01	6340
02/07/2013	08:58:02	6650
02/07/2013	08:58:03	6400
02/07/2013	08:58:04	6180
02/07/2013	08:58:05	6340
02/07/2013	08:58:06	6560
02/07/2013	08:58:07	6620
02/07/2013	08:58:08	6490
02/07/2013	08:58:09	6430
02/07/2013	08:58:10	6700
02/07/2013	08:58:11	6800
02/07/2013	08:58:12	6790
02/07/2013	08:58:13	6770
02/07/2013	08:58:14	6770
02/07/2013	08:58:15	6740
02/07/2013	08:58:16	6950
02/07/2013	08:58:17	6760
02/07/2013	08:58:18	6810
02/07/2013	08:58:19	6890
02/07/2013	08:58:20	6840
02/07/2013	08:58:21	6780
02/07/2013	08:58:22	6820
02/07/2013	08:58:23	6810
02/07/2013	08:58:24	6590
02/07/2013	08:58:25	6560
02/07/2013	08:58:26	6490
02/07/2013	08:58:27	6560
02/07/2013	08:58:28	6660
02/07/2013	08:58:29	6640
02/07/2013	08:58:30	6590
02/07/2013	08:58:31	6700
02/07/2013	08:58:32	6490
02/07/2013	08:58:33	5960
02/07/2013	08:58:34	5880
02/07/2013	08:58:35	6250
02/07/2013	08:58:36	6600
02/07/2013	08:58:37	6590
02/07/2013	08:58:38	6450
02/07/2013	08:58:39	6230
02/07/2013	08:58:40	6160
02/07/2013	08:58:41	6240
02/07/2013	08:58:42	6480
02/07/2013	08:58:43	6550
02/07/2013	08:58:44	6700
02/07/2013	08:58:45	6810
02/07/2013	08:58:46	6830
02/07/2013	08:58:47	6760
02/07/2013	08:58:48	6820
02/07/2013	08:58:49	6650
02/07/2013	08:58:50	6750
02/07/2013	08:58:51	6710
02/07/2013	08:58:52	6720
02/07/2013	08:58:53	6850
02/07/2013	08:58:54	6730
02/07/2013	08:58:55	6630
02/07/2013	08:58:56	6620
02/07/2013	08:58:57	6620
02/07/2013	08:58:58	6620
02/07/2013	08:58:59	6530
02/07/2013	08:59:00	6550
02/07/2013	08:59:01	6650
02/07/2013	08:59:02	6520
02/07/2013	08:59:03	6520
02/07/2013	08:59:04	6750
02/07/2013	08:59:05	6590
02/07/2013	08:59:06	6890
02/07/2013	08:59:07	6850
02/07/2013	08:59:08	7000
02/07/2013	08:59:09	6940
02/07/2013	08:59:10	6690
02/07/2013	08:59:11	6620
02/07/2013	08:59:12	6530
02/07/2013	08:59:13	6750
02/07/2013	08:59:14	6560
02/07/2013	08:59:15	6610
02/07/2013	08:59:16	6450
02/07/2013	08:59:17	6390
02/07/2013	08:59:18	6500
02/07/2013	08:59:19	6800
02/07/2013	08:59:20	6840
02/07/2013	08:59:21	6840
02/07/2013	08:59:22	6930
02/07/2013	08:59:23	6760
02/07/2013	08:59:24	6820
02/07/2013	08:59:25	6780
02/07/2013	08:59:26	6890
02/07/2013	08:59:27	6720
02/07/2013	08:59:28	6690
02/07/2013	08:59:29	6490
02/07/2013	08:59:30	6250
02/07/2013	08:59:31	6790
02/07/2013	08:59:32	6780
02/07/2013	08:59:33	6820
02/07/2013	08:59:34	6930
02/07/2013	08:59:35	6830
02/07/2013	08:59:36	6890
02/07/2013	08:59:37	6990
02/07/2013	08:59:38	7080
02/07/2013	08:59:39	6980
02/07/2013	08:59:40	7220
02/07/2013	08:59:41	6990
02/07/2013	08:59:42	6790
02/07/2013	08:59:43	6820
02/07/2013	08:59:44	6960
02/07/2013	08:59:45	6970
02/07/2013	08:59:46	6900
02/07/2013	08:59:47	6730
02/07/2013	08:59:48	6750
02/07/2013	08:59:49	6790
02/07/2013	08:59:50	6850
02/07/2013	08:59:51	6720
02/07/2013	08:59:52	6700
02/07/2013	08:59:53	6820
02/07/2013	08:59:54	6850
02/07/2013	08:59:55	6880
02/07/2013	08:59:56	6750
02/07/2013	08:59:57	6730
02/07/2013	08:59:58	6630
02/07/2013	08:59:59	6660
02/07/2013	09:00:00	6340
02/07/2013	09:00:01	6410
02/07/2013	09:00:02	6680
02/07/2013	09:00:03	6650
02/07/2013	09:00:04	6680
02/07/2013	09:00:05	6760
02/07/2013	09:00:06	6600
02/07/2013	09:00:07	6670
02/07/2013	09:00:08	6570
02/07/2013	09:00:09	6650
02/07/2013	09:00:10	6700
02/07/2013	09:00:11	6750
02/07/2013	09:00:12	6750
02/07/2013	09:00:13	6630
02/07/2013	09:00:14	6610
02/07/2013	09:00:15	6560
02/07/2013	09:00:16	6520
02/07/2013	09:00:17	6670
02/07/2013	09:00:18	6520
02/07/2013	09:00:19	6660
02/07/2013	09:00:20	6720
02/07/2013	09:00:21	6850
02/07/2013	09:00:22	6810
02/07/2013	09:00:23	6680
02/07/2013	09:00:24	6830
02/07/2013	09:00:25	6810
02/07/2013	09:00:26	6730
02/07/2013	09:00:27	6750
02/07/2013	09:00:28	6860
02/07/2013	09:00:29	6920
02/07/2013	09:00:30	6730
02/07/2013	09:00:31	6990
02/07/2013	09:00:32	6900
02/07/2013	09:00:33	6860
02/07/2013	09:00:34	6980
02/07/2013	09:00:35	6950
02/07/2013	09:00:36	6900
02/07/2013	09:00:37	7160
02/07/2013	09:00:38	7030
02/07/2013	09:00:39	7050
02/07/2013	09:00:40	7010
02/07/2013	09:00:41	7270
02/07/2013	09:00:42	7030
02/07/2013	09:00:43	7050
02/07/2013	09:00:44	7140
02/07/2013	09:00:45	7040
02/07/2013	09:00:46	7050
02/07/2013	09:00:47	7110
02/07/2013	09:00:48	7100
02/07/2013	09:00:49	7010
02/07/2013	09:00:50	7010
02/07/2013	09:00:51	6890
02/07/2013	09:00:52	6760
02/07/2013	09:00:53	6770
02/07/2013	09:00:54	6660
02/07/2013	09:00:55	6230
02/07/2013	09:00:56	6550
02/07/2013	09:00:57	6880
02/07/2013	09:00:58	7000
02/07/2013	09:00:59	7050
02/07/2013	09:01:00	7120
02/07/2013	09:01:01	7060
02/07/2013	09:01:02	6960
02/07/2013	09:01:03	6970
02/07/2013	09:01:04	7040
02/07/2013	09:01:05	6990
02/07/2013	09:01:06	6980
02/07/2013	09:01:07	7070
02/07/2013	09:01:08	7100
02/07/2013	09:01:09	7070
02/07/2013	09:01:10	7110
02/07/2013	09:01:11	7060
02/07/2013	09:01:12	7280
02/07/2013	09:01:13	7200
02/07/2013	09:01:14	7090
02/07/2013	09:01:15	7130
02/07/2013	09:01:16	7110
02/07/2013	09:01:17	7130
02/07/2013	09:01:18	7110
02/07/2013	09:01:19	7120
02/07/2013	09:01:20	7080
02/07/2013	09:01:21	7170
02/07/2013	09:01:22	7100
02/07/2013	09:01:23	7200
02/07/2013	09:01:24	7240
02/07/2013	09:01:25	7040
02/07/2013	09:01:26	7080
02/07/2013	09:01:27	6900
02/07/2013	09:01:28	6990
02/07/2013	09:01:29	7020
02/07/2013	09:01:30	7070
02/07/2013	09:01:31	7160
02/07/2013	09:01:32	7110
02/07/2013	09:01:33	7060
02/07/2013	09:01:34	7050
02/07/2013	09:01:35	7070
02/07/2013	09:01:36	7060
02/07/2013	09:01:37	7100
02/07/2013	09:01:38	6970
02/07/2013	09:01:39	7100
02/07/2013	09:01:40	7040
02/07/2013	09:01:41	7030
02/07/2013	09:01:42	7020
02/07/2013	09:01:43	7150
02/07/2013	09:01:44	6980
02/07/2013	09:01:45	6940
02/07/2013	09:01:46	6950
02/07/2013	09:01:47	7000
02/07/2013	09:01:48	6870
02/07/2013	09:01:49	6830
02/07/2013	09:01:50	6820
02/07/2013	09:01:51	6870
02/07/2013	09:01:52	6770
02/07/2013	09:01:53	6550
02/07/2013	09:01:54	6520
02/07/2013	09:01:55	6620
02/07/2013	09:01:56	6690
02/07/2013	09:01:57	6770
02/07/2013	09:01:58	6900
02/07/2013	09:01:59	6750
02/07/2013	09:02:00	6500
02/07/2013	09:02:01	6500
02/07/2013	09:02:02	6700
02/07/2013	09:02:03	6940
02/07/2013	09:02:04	6870
02/07/2013	09:02:05	6870
02/07/2013	09:02:06	6750
02/07/2013	09:02:07	6690
02/07/2013	09:02:08	6810
02/07/2013	09:02:09	6870
02/07/2013	09:02:10	6620
02/07/2013	09:02:11	6690
02/07/2013	09:02:12	6620
02/07/2013	09:02:13	6580
02/07/2013	09:02:14	6590
02/07/2013	09:02:15	6580
02/07/2013	09:02:16	6660
02/07/2013	09:02:17	6660
02/07/2013	09:02:18	6640
02/07/2013	09:02:19	6650
02/07/2013	09:02:20	6440
02/07/2013	09:02:21	6740
02/07/2013	09:02:22	6730
02/07/2013	09:02:23	6670
02/07/2013	09:02:24	6860
02/07/2013	09:02:25	7010
02/07/2013	09:02:26	6780
02/07/2013	09:02:27	6560
02/07/2013	09:02:28	6670
02/07/2013	09:02:29	6760
02/07/2013	09:02:30	6670
02/07/2013	09:02:31	6710
02/07/2013	09:02:32	6870
02/07/2013	09:02:33	6760
02/07/2013	09:02:34	7050
02/07/2013	09:02:35	6950
02/07/2013	09:02:36	7160
02/07/2013	09:02:37	7000
02/07/2013	09:02:38	6940
02/07/2013	09:02:39	6870
02/07/2013	09:02:40	7030
02/07/2013	09:02:41	6890
02/07/2013	09:02:42	7050
02/07/2013	09:02:43	7050
02/07/2013	09:02:44	6990
02/07/2013	09:02:45	6960
02/07/2013	09:02:46	7040
02/07/2013	09:02:47	7050
02/07/2013	09:02:48	6870
02/07/2013	09:02:49	7040
02/07/2013	09:02:50	6950
02/07/2013	09:02:51	6930
02/07/2013	09:02:52	7120
02/07/2013	09:02:53	7020
02/07/2013	09:02:54	7220
02/07/2013	09:02:55	6990
02/07/2013	09:02:56	6950
02/07/2013	09:02:57	6960
02/07/2013	09:02:58	7010
02/07/2013	09:02:59	6910
02/07/2013	09:03:00	7010
02/07/2013	09:03:01	6870
02/07/2013	09:03:02	6720
02/07/2013	09:03:03	7020
02/07/2013	09:03:04	6990
02/07/2013	09:03:05	6890
02/07/2013	09:03:06	6880
02/07/2013	09:03:07	6870
02/07/2013	09:03:08	6920
02/07/2013	09:03:09	6720
02/07/2013	09:03:10	6790
02/07/2013	09:03:11	6850
02/07/2013	09:03:12	6860
02/07/2013	09:03:13	6860
02/07/2013	09:03:14	6900
02/07/2013	09:03:15	6780
02/07/2013	09:03:16	6870
02/07/2013	09:03:17	6900
02/07/2013	09:03:18	7080
02/07/2013	09:03:19	6950
02/07/2013	09:03:20	6990
02/07/2013	09:03:21	6570
02/07/2013	09:03:22	6900
02/07/2013	09:03:23	6870
02/07/2013	09:03:24	6980
02/07/2013	09:03:25	6920
02/07/2013	09:03:26	7020
02/07/2013	09:03:27	7070
02/07/2013	09:03:28	7180
02/07/2013	09:03:29	7170
02/07/2013	09:03:30	6950
02/07/2013	09:03:31	6910
02/07/2013	09:03:32	7110
02/07/2013	09:03:33	7040
02/07/2013	09:03:34	7000
02/07/2013	09:03:35	7040
02/07/2013	09:03:36	6970
02/07/2013	09:03:37	6990
02/07/2013	09:03:38	6880
02/07/2013	09:03:39	7060
02/07/2013	09:03:40	6880
02/07/2013	09:03:41	6980
02/07/2013	09:03:42	6970
02/07/2013	09:03:43	6970
02/07/2013	09:03:44	6960
02/07/2013	09:03:45	6990
02/07/2013	09:03:46	6880
02/07/2013	09:03:47	6760
02/07/2013	09:03:48	7080
02/07/2013	09:03:49	6890
02/07/2013	09:03:50	6820
02/07/2013	09:03:51	6980
02/07/2013	09:03:52	7050
02/07/2013	09:03:53	7080
02/07/2013	09:03:54	7070
02/07/2013	09:03:55	7120
02/07/2013	09:03:56	6950
02/07/2013	09:03:57	6970
02/07/2013	09:03:58	7070
02/07/2013	09:03:59	7040
02/07/2013	09:04:00	7070
02/07/2013	09:04:01	6980
02/07/2013	09:04:02	6960
02/07/2013	09:04:03	7050
02/07/2013	09:04:04	6930
02/07/2013	09:04:05	6970
02/07/2013	09:04:06	7080
02/07/2013	09:04:07	7130
02/07/2013	09:04:08	6960
02/07/2013	09:04:09	7100
02/07/2013	09:04:10	6990
02/07/2013	09:04:11	6990
02/07/2013	09:04:12	7030
02/07/2013	09:04:13	6830
02/07/2013	09:04:14	6760
02/07/2013	09:04:15	6910
02/07/2013	09:04:16	6940
02/07/2013	09:04:17	6960
02/07/2013	09:04:18	7030
02/07/2013	09:04:19	6920
02/07/2013	09:04:20	6900
02/07/2013	09:04:21	6870
02/07/2013	09:04:22	7050
02/07/2013	09:04:23	6950
02/07/2013	09:04:24	6940
02/07/2013	09:04:25	6990
02/07/2013	09:04:26	7000
02/07/2013	09:04:27	7090
02/07/2013	09:04:28	7030
02/07/2013	09:04:29	7050
02/07/2013	09:04:30	6940
02/07/2013	09:04:31	7120
02/07/2013	09:04:32	7110
02/07/2013	09:04:33	7000
02/07/2013	09:04:34	6950
02/07/2013	09:04:35	7020
02/07/2013	09:04:36	7010
02/07/2013	09:04:37	7020
02/07/2013	09:04:38	7120
02/07/2013	09:04:39	7080
02/07/2013	09:04:40	7030
02/07/2013	09:04:41	7050
02/07/2013	09:04:42	6870
02/07/2013	09:04:43	7030
02/07/2013	09:04:44	7070
02/07/2013	09:04:45	7010
02/07/2013	09:04:46	7140
02/07/2013	09:04:47	7010
02/07/2013	09:04:48	7020
02/07/2013	09:04:49	7010
02/07/2013	09:04:50	6980
02/07/2013	09:04:51	7010
02/07/2013	09:04:52	6980
02/07/2013	09:04:53	7020
02/07/2013	09:04:54	6980
02/07/2013	09:04:55	7010
02/07/2013	09:04:56	7030
02/07/2013	09:04:57	6900
02/07/2013	09:04:58	6950
02/07/2013	09:04:59	6830
02/07/2013	09:05:00	6830
02/07/2013	09:05:01	6650
02/07/2013	09:05:02	6700
02/07/2013	09:05:03	6800
02/07/2013	09:05:04	6870
02/07/2013	09:05:05	6730
02/07/2013	09:05:06	6600
02/07/2013	09:05:07	6810
02/07/2013	09:05:08	6840
02/07/2013	09:05:09	6800
02/07/2013	09:05:10	6940
02/07/2013	09:05:11	6940
02/07/2013	09:05:12	7040
02/07/2013	09:05:13	6830
02/07/2013	09:05:14	6920
02/07/2013	09:05:15	6860
02/07/2013	09:05:16	6730
02/07/2013	09:05:17	6980
02/07/2013	09:05:18	6950
02/07/2013	09:05:19	6850
02/07/2013	09:05:20	6940
02/07/2013	09:05:21	6950
02/07/2013	09:05:22	6890
02/07/2013	09:05:23	6760
02/07/2013	09:05:24	6710
02/07/2013	09:05:25	6830
02/07/2013	09:05:26	6790
02/07/2013	09:05:27	6780
02/07/2013	09:05:28	6780
02/07/2013	09:05:29	6840
02/07/2013	09:05:30	6720
02/07/2013	09:05:31	6710
02/07/2013	09:05:32	6570
02/07/2013	09:05:33	6240
02/07/2013	09:05:34	6640
02/07/2013	09:05:35	6970
02/07/2013	09:05:36	6770
02/07/2013	09:05:37	6910
02/07/2013	09:05:38	6720
02/07/2013	09:05:39	6650
02/07/2013	09:05:40	6400
02/07/2013	09:05:41	6420
02/07/2013	09:05:42	6870
02/07/2013	09:05:43	6750
02/07/2013	09:05:44	6780
02/07/2013	09:05:45	6710
02/07/2013	09:05:46	6200
02/07/2013	09:05:47	6950
02/07/2013	09:05:48	6870
02/07/2013	09:05:49	6630
02/07/2013	09:05:50	6040
02/07/2013	09:05:51	6480
02/07/2013	09:05:52	6620
02/07/2013	09:05:53	6490
02/07/2013	09:05:54	6150
02/07/2013	09:05:55	6880
02/07/2013	09:05:56	6720
02/07/2013	09:05:57	5820
02/07/2013	09:05:58	6550
02/07/2013	09:05:59	6320
02/07/2013	09:06:00	6160
02/07/2013	09:06:01	6840
02/07/2013	09:06:02	6110
02/07/2013	09:06:03	6690
02/07/2013	09:06:04	6590
02/07/2013	09:06:05	5920
02/07/2013	09:06:06	6410
02/07/2013	09:06:07	5970
02/07/2013	09:06:08	6880
02/07/2013	09:06:09	6110
02/07/2013	09:06:10	6690
02/07/2013	09:06:11	6250
02/07/2013	09:06:12	6780
02/07/2013	09:06:13	6220
02/07/2013	09:06:14	6780
02/07/2013	09:06:15	6360
02/07/2013	09:06:16	6720
02/07/2013	09:06:17	6240
02/07/2013	09:06:18	6700
02/07/2013	09:06:19	6490
02/07/2013	09:06:20	6290
02/07/2013	09:06:21	6820
02/07/2013	09:06:22	6290
02/07/2013	09:06:23	6500
02/07/2013	09:06:24	6640
02/07/2013	09:06:25	6360
02/07/2013	09:06:26	6310
02/07/2013	09:06:27	6710
02/07/2013	09:06:28	6370
02/07/2013	09:06:29	6230
02/07/2013	09:06:30	6310
02/07/2013	09:06:31	6600
02/07/2013	09:06:32	6680
02/07/2013	09:06:33	6400
02/07/2013	09:06:34	6270
02/07/2013	09:06:35	6190
02/07/2013	09:06:36	6380
02/07/2013	09:06:37	6170
02/07/2013	09:06:38	6250
02/07/2013	09:06:39	6450
02/07/2013	09:06:40	6610
02/07/2013	09:06:41	6460
02/07/2013	09:06:42	6400
02/07/2013	09:06:43	6350
02/07/2013	09:06:44	6490
02/07/2013	09:06:45	6420
02/07/2013	09:06:46	6380
02/07/2013	09:06:47	6430
02/07/2013	09:06:48	6320
02/07/2013	09:06:49	6240
02/07/2013	09:06:50	6090
02/07/2013	09:06:51	6140
02/07/2013	09:06:52	5960
02/07/2013	09:06:53	5970
02/07/2013	09:06:54	6250
02/07/2013	09:06:55	6110
02/07/2013	09:06:56	6020
02/07/2013	09:06:57	5860
02/07/2013	09:06:58	5520
02/07/2013	09:06:59	5310
02/07/2013	09:07:00	5570
02/07/2013	09:07:01	5890
02/07/2013	09:07:02	5920
02/07/2013	09:07:03	5960
02/07/2013	09:07:04	5900
02/07/2013	09:07:05	6150
02/07/2013	09:07:06	6500
02/07/2013	09:07:07	6260
02/07/2013	09:07:08	5920
02/07/2013	09:07:09	6320
02/07/2013	09:07:10	6360
02/07/2013	09:07:11	5980
02/07/2013	09:07:12	6270
02/07/2013	09:07:13	6230
02/07/2013	09:07:14	6170
02/07/2013	09:07:15	6390
02/07/2013	09:07:16	6000
02/07/2013	09:07:17	6300
02/07/2013	09:07:18	6260
02/07/2013	09:07:19	6560
02/07/2013	09:07:20	6200
02/07/2013	09:07:21	6480
02/07/2013	09:07:22	6260
02/07/2013	09:07:23	6580
02/07/2013	09:07:24	6230
02/07/2013	09:07:25	6340
02/07/2013	09:07:26	6300
02/07/2013	09:07:27	6090
02/07/2013	09:07:28	6490
02/07/2013	09:07:29	6120
02/07/2013	09:07:30	6020
02/07/2013	09:07:31	6340
02/07/2013	09:07:32	6270
02/07/2013	09:07:33	6150
02/07/2013	09:07:34	6230
02/07/2013	09:07:35	6380
02/07/2013	09:07:36	6110
02/07/2013	09:07:37	6230
02/07/2013	09:07:38	6260
02/07/2013	09:07:39	6390
02/07/2013	09:07:40	6260
02/07/2013	09:07:41	6340
02/07/2013	09:07:42	6260
02/07/2013	09:07:43	6250
02/07/2013	09:07:44	6210
02/07/2013	09:07:45	6220
02/07/2013	09:07:46	6190
02/07/2013	09:07:47	5680
02/07/2013	09:07:48	6010
02/07/2013	09:07:49	5710
02/07/2013	09:07:50	5690
02/07/2013	09:07:51	5790
02/07/2013	09:07:52	5920
02/07/2013	09:07:53	5980
02/07/2013	09:07:54	6020
02/07/2013	09:07:55	5890
02/07/2013	09:07:56	5850
02/07/2013	09:07:57	5980
02/07/2013	09:07:58	5970
02/07/2013	09:07:59	6200
02/07/2013	09:08:00	6440
02/07/2013	09:08:01	6280
02/07/2013	09:08:02	6220
02/07/2013	09:08:03	6420
02/07/2013	09:08:04	6150
02/07/2013	09:08:05	6080
02/07/2013	09:08:06	5960
02/07/2013	09:08:07	6040
02/07/2013	09:08:08	6010
02/07/2013	09:08:09	6010
02/07/2013	09:08:10	6060
02/07/2013	09:08:11	6210
02/07/2013	09:08:12	6130
02/07/2013	09:08:13	6300
02/07/2013	09:08:14	6290
02/07/2013	09:08:15	6280
02/07/2013	09:08:16	6090
02/07/2013	09:08:17	6010
02/07/2013	09:08:18	6140
02/07/2013	09:08:19	6090
02/07/2013	09:08:20	6070
02/07/2013	09:08:21	5940
02/07/2013	09:08:22	6070
02/07/2013	09:08:23	6130
02/07/2013	09:08:24	6080
02/07/2013	09:08:25	6050
02/07/2013	09:08:26	6320
02/07/2013	09:08:27	6060
02/07/2013	09:08:28	5930
02/07/2013	09:08:29	6010
02/07/2013	09:08:30	6010
02/07/2013	09:08:31	5990
02/07/2013	09:08:32	6020
02/07/2013	09:08:33	6060
02/07/2013	09:08:34	6000
02/07/2013	09:08:35	6170
02/07/2013	09:08:36	6040
02/07/2013	09:08:37	6220
02/07/2013	09:08:38	6240
02/07/2013	09:08:39	5950
02/07/2013	09:08:40	6220
02/07/2013	09:08:41	6200
02/07/2013	09:08:42	6230
02/07/2013	09:08:43	6370
02/07/2013	09:08:44	6150
02/07/2013	09:08:45	6260
02/07/2013	09:08:46	6060
02/07/2013	09:08:47	6150
02/07/2013	09:08:48	5900
02/07/2013	09:08:49	5580
02/07/2013	09:08:50	5890
02/07/2013	09:08:51	5690
02/07/2013	09:08:52	6170
02/07/2013	09:08:53	5890
02/07/2013	09:08:54	6130
02/07/2013	09:08:55	6070
02/07/2013	09:08:56	6000
02/07/2013	09:08:57	6140
02/07/2013	09:08:58	5950
02/07/2013	09:08:59	6210
02/07/2013	09:09:00	5950
02/07/2013	09:09:01	6090
02/07/2013	09:09:02	5830
02/07/2013	09:09:03	5860
02/07/2013	09:09:04	5470
02/07/2013	09:09:05	5690
02/07/2013	09:09:06	5810
02/07/2013	09:09:07	5920
02/07/2013	09:09:08	5800
02/07/2013	09:09:09	6120
02/07/2013	09:09:10	6000
02/07/2013	09:09:11	5950
02/07/2013	09:09:12	6010
02/07/2013	09:09:13	5880
02/07/2013	09:09:14	6270
02/07/2013	09:09:15	6000
02/07/2013	09:09:16	6090
02/07/2013	09:09:17	5900
02/07/2013	09:09:18	5950
02/07/2013	09:09:19	6090
02/07/2013	09:09:20	5960
02/07/2013	09:09:21	6140
02/07/2013	09:09:22	6070
02/07/2013	09:09:23	5970
02/07/2013	09:09:24	6070
02/07/2013	09:09:25	5630
02/07/2013	09:09:26	5770
02/07/2013	09:09:27	6030
02/07/2013	09:09:28	5960
02/07/2013	09:09:29	6080
02/07/2013	09:09:30	5960
02/07/2013	09:09:31	5710
02/07/2013	09:09:32	5770
02/07/2013	09:09:33	6040
02/07/2013	09:09:34	6230
02/07/2013	09:09:35	5890
02/07/2013	09:09:36	5910
02/07/2013	09:09:37	5890
02/07/2013	09:09:38	5820
02/07/2013	09:09:39	5840
02/07/2013	09:09:40	5880
02/07/2013	09:09:41	6010
02/07/2013	09:09:42	6040
02/07/2013	09:09:43	5880
02/07/2013	09:09:44	5770
02/07/2013	09:09:45	5730
02/07/2013	09:09:46	5870
02/07/2013	09:09:47	5720
02/07/2013	09:09:48	5990
02/07/2013	09:09:49	5930
02/07/2013	09:09:50	5810
02/07/2013	09:09:51	5700
02/07/2013	09:09:52	5920
02/07/2013	09:09:53	5840
02/07/2013	09:09:54	5850
02/07/2013	09:09:55	5930
02/07/2013	09:09:56	6000
02/07/2013	09:09:57	5750
02/07/2013	09:09:58	5610
02/07/2013	09:09:59	5670
02/07/2013	09:10:00	5870
02/07/2013	09:10:01	5850
02/07/2013	09:10:02	5890
02/07/2013	09:10:03	5820
02/07/2013	09:10:04	5960
02/07/2013	09:10:05	5910
02/07/2013	09:10:06	5850
02/07/2013	09:10:07	5690
02/07/2013	09:10:08	5840
02/07/2013	09:10:09	5890
02/07/2013	09:10:10	5900
02/07/2013	09:10:11	5830
02/07/2013	09:10:12	5800
02/07/2013	09:10:13	5750
02/07/2013	09:10:14	5850
02/07/2013	09:10:15	5910
02/07/2013	09:10:16	5860
02/07/2013	09:10:17	5890
02/07/2013	09:10:18	5940
02/07/2013	09:10:19	5780
02/07/2013	09:10:20	5840
02/07/2013	09:10:21	6040
02/07/2013	09:10:22	5810
02/07/2013	09:10:23	5780
02/07/2013	09:10:24	5840
02/07/2013	09:10:25	5760
02/07/2013	09:10:26	5740
02/07/2013	09:10:27	5950
02/07/2013	09:10:28	5920
02/07/2013	09:10:29	5820
02/07/2013	09:10:30	5990
02/07/2013	09:10:31	5900
02/07/2013	09:10:32	5710
02/07/2013	09:10:33	5920
02/07/2013	09:10:34	5780
02/07/2013	09:10:35	5680
02/07/2013	09:10:36	5740
02/07/2013	09:10:37	5490
02/07/2013	09:10:38	5230
02/07/2013	09:10:39	5840
02/07/2013	09:10:40	5710
02/07/2013	09:10:41	5770
02/07/2013	09:10:42	5650
02/07/2013	09:10:43	5470
02/07/2013	09:10:44	5570
02/07/2013	09:10:45	5470
02/07/2013	09:10:46	5690
02/07/2013	09:10:47	5620
02/07/2013	09:10:48	5810
02/07/2013	09:10:49	5640
02/07/2013	09:10:50	5810
02/07/2013	09:10:51	5780
02/07/2013	09:10:52	5580
02/07/2013	09:10:53	5440
02/07/2013	09:10:54	5580
02/07/2013	09:10:55	5380
02/07/2013	09:10:56	5380
02/07/2013	09:10:57	5430
02/07/2013	09:10:58	5530
02/07/2013	09:10:59	5560
02/07/2013	09:11:00	5750
02/07/2013	09:11:01	5630
02/07/2013	09:11:02	5640
02/07/2013	09:11:03	5710
02/07/2013	09:11:04	5500
02/07/2013	09:11:05	5560
02/07/2013	09:11:06	5510
02/07/2013	09:11:07	5790
02/07/2013	09:11:08	5370
02/07/2013	09:11:09	5710
02/07/2013	09:11:10	5610
02/07/2013	09:11:11	5890
02/07/2013	09:11:12	5570
02/07/2013	09:11:13	5880
02/07/2013	09:11:14	5780
02/07/2013	09:11:15	5890
02/07/2013	09:11:16	5700
02/07/2013	09:11:17	5480
02/07/2013	09:11:18	5590
02/07/2013	09:11:19	5670
02/07/2013	09:11:20	5830
02/07/2013	09:11:21	5870
02/07/2013	09:11:22	6030
02/07/2013	09:11:23	5750
02/07/2013	09:11:24	5920
02/07/2013	09:11:25	5750
02/07/2013	09:11:26	5730
02/07/2013	09:11:27	5690
02/07/2013	09:11:28	5840
02/07/2013	09:11:29	5670
02/07/2013	09:11:30	5830
02/07/2013	09:11:31	5790
02/07/2013	09:11:32	5720
02/07/2013	09:11:33	5700
02/07/2013	09:11:34	5740
02/07/2013	09:11:35	5640
02/07/2013	09:11:36	5620
02/07/2013	09:11:37	5750
02/07/2013	09:11:38	5450
02/07/2013	09:11:39	5490
02/07/2013	09:11:40	5280
02/07/2013	09:11:41	5560
02/07/2013	09:11:42	5490
02/07/2013	09:11:43	5650
02/07/2013	09:11:44	5420
02/07/2013	09:11:45	5600
02/07/2013	09:11:46	5400
02/07/2013	09:11:47	5700
02/07/2013	09:11:48	5480
02/07/2013	09:11:49	5580
02/07/2013	09:11:50	5610
02/07/2013	09:11:51	5770
02/07/2013	09:11:52	5820
02/07/2013	09:11:53	5700
02/07/2013	09:11:54	5670
02/07/2013	09:11:55	5580
02/07/2013	09:11:56	5760
02/07/2013	09:11:57	5570
02/07/2013	09:11:58	5820
02/07/2013	09:11:59	5690
02/07/2013	09:12:00	5920
02/07/2013	09:12:01	5590
02/07/2013	09:12:02	5640
02/07/2013	09:12:03	5580
02/07/2013	09:12:04	5810
02/07/2013	09:12:05	5680
02/07/2013	09:12:06	5850
02/07/2013	09:12:07	5780
02/07/2013	09:12:08	5680
02/07/2013	09:12:09	5740
02/07/2013	09:12:10	5460
02/07/2013	09:12:11	5630
02/07/2013	09:12:12	5750
02/07/2013	09:12:13	5760
02/07/2013	09:12:14	5640
02/07/2013	09:12:15	5850
02/07/2013	09:12:16	5660
02/07/2013	09:12:17	5790
02/07/2013	09:12:18	5650
02/07/2013	09:12:19	5770
02/07/2013	09:12:20	5710
02/07/2013	09:12:21	5700
02/07/2013	09:12:22	5750
02/07/2013	09:12:23	5750
02/07/2013	09:12:24	5880
02/07/2013	09:12:25	5680
02/07/2013	09:12:26	5810
02/07/2013	09:12:27	5640
02/07/2013	09:12:28	5950
02/07/2013	09:12:29	5680
02/07/2013	09:12:30	5800
02/07/2013	09:12:31	5590
02/07/2013	09:12:32	5780
02/07/2013	09:12:33	5690
02/07/2013	09:12:34	5720
02/07/2013	09:12:35	5810
02/07/2013	09:12:36	5850
02/07/2013	09:12:37	5720
02/07/2013	09:12:38	5600
02/07/2013	09:12:39	5770
02/07/2013	09:12:40	5550
02/07/2013	09:12:41	5810
02/07/2013	09:12:42	5690
02/07/2013	09:12:43	5740
02/07/2013	09:12:44	5310
02/07/2013	09:12:45	5600
02/07/2013	09:12:46	5490
02/07/2013	09:12:47	5740
02/07/2013	09:12:48	5530
02/07/2013	09:12:49	5670
02/07/2013	09:12:50	5510
02/07/2013	09:12:51	5740
02/07/2013	09:12:52	5560
02/07/2013	09:12:53	5620
02/07/2013	09:12:54	5510
02/07/2013	09:12:55	5640
02/07/2013	09:12:56	5660
02/07/2013	09:12:57	5540
02/07/2013	09:12:58	5620
02/07/2013	09:12:59	5450
02/07/2013	09:13:00	5750
02/07/2013	09:13:01	5510
02/07/2013	09:13:02	5760
02/07/2013	09:13:03	5560
02/07/2013	09:13:04	5790
02/07/2013	09:13:05	5560
02/07/2013	09:13:06	5640
02/07/2013	09:13:07	5400
02/07/2013	09:13:08	5660
02/07/2013	09:13:09	5570
02/07/2013	09:13:10	5410
02/07/2013	09:13:11	5440
02/07/2013	09:13:12	5780
02/07/2013	09:13:13	5720
02/07/2013	09:13:14	5640
02/07/2013	09:13:15	5590
02/07/2013	09:13:16	5620
02/07/2013	09:13:17	5640
02/07/2013	09:13:18	5590
02/07/2013	09:13:19	5720
02/07/2013	09:13:20	5640
02/07/2013	09:13:21	5760
02/07/2013	09:13:22	5550
02/07/2013	09:13:23	5740
02/07/2013	09:13:24	5590
02/07/2013	09:13:25	5730
02/07/2013	09:13:26	5560
02/07/2013	09:13:27	5810
02/07/2013	09:13:28	5690
02/07/2013	09:13:29	5780
02/07/2013	09:13:30	5580
02/07/2013	09:13:31	5850
02/07/2013	09:13:32	5590
02/07/2013	09:13:33	5860
02/07/2013	09:13:34	5490
02/07/2013	09:13:35	5760
02/07/2013	09:13:36	5610
02/07/2013	09:13:37	5850
02/07/2013	09:13:38	5520
02/07/2013	09:13:39	5650
02/07/2013	09:13:40	5410
02/07/2013	09:13:41	5740
02/07/2013	09:13:42	5560
02/07/2013	09:13:43	5670
02/07/2013	09:13:44	5540
02/07/2013	09:13:45	5550
02/07/2013	09:13:46	5380
02/07/2013	09:13:47	5570
02/07/2013	09:13:48	5460
02/07/2013	09:13:49	5660
02/07/2013	09:13:50	5460
02/07/2013	09:13:51	5540
02/07/2013	09:13:52	5420
02/07/2013	09:13:53	5720
02/07/2013	09:13:54	5470
02/07/2013	09:13:55	5360
02/07/2013	09:13:56	5370
02/07/2013	09:13:57	5220
02/07/2013	09:13:58	4980
02/07/2013	09:13:59	5380
02/07/2013	09:14:00	5210
02/07/2013	09:14:01	5330
02/07/2013	09:14:02	5130
02/07/2013	09:14:03	5140
02/07/2013	09:14:04	4730
02/07/2013	09:14:05	4850
02/07/2013	09:14:06	4780
02/07/2013	09:14:07	5000
02/07/2013	09:14:08	4780
02/07/2013	09:14:09	5190
02/07/2013	09:14:10	5220
02/07/2013	09:14:11	5430
02/07/2013	09:14:12	5370
02/07/2013	09:14:13	5400
02/07/2013	09:14:14	5360
02/07/2013	09:14:15	5570
02/07/2013	09:14:16	5320
02/07/2013	09:14:17	5580
02/07/2013	09:14:18	5260
02/07/2013	09:14:19	5640
02/07/2013	09:14:20	5490
02/07/2013	09:14:21	5660
02/07/2013	09:14:22	5420
02/07/2013	09:14:23	5530
02/07/2013	09:14:24	5460
02/07/2013	09:14:25	5380
02/07/2013	09:14:26	5390
02/07/2013	09:14:27	5380
02/07/2013	09:14:28	5530
02/07/2013	09:14:29	5330
02/07/2013	09:14:30	5580
02/07/2013	09:14:31	5370
02/07/2013	09:14:32	5640
02/07/2013	09:14:33	5370
02/07/2013	09:14:34	5580
02/07/2013	09:14:35	5230
02/07/2013	09:14:36	5440
02/07/2013	09:14:37	5390
02/07/2013	09:14:38	5360
02/07/2013	09:14:39	5230
02/07/2013	09:14:40	5370
02/07/2013	09:14:41	5190
02/07/2013	09:14:42	5390
02/07/2013	09:14:43	5230
02/07/2013	09:14:44	5280
02/07/2013	09:14:45	5180
02/07/2013	09:14:46	5040
02/07/2013	09:14:47	5140
02/07/2013	09:14:48	5130
02/07/2013	09:14:49	5480
02/07/2013	09:14:50	4930
02/07/2013	09:14:51	5390
02/07/2013	09:14:52	5150
02/07/2013	09:14:53	5370
02/07/2013	09:14:54	5130
02/07/2013	09:14:55	5410
02/07/2013	09:14:56	5080
02/07/2013	09:14:57	5370
02/07/2013	09:14:58	5110
02/07/2013	09:14:59	5240
02/07/2013	09:15:00	5130
02/07/2013	09:15:01	5250
02/07/2013	09:15:02	5120
02/07/2013	09:15:03	5270
02/07/2013	09:15:04	5330
02/07/2013	09:15:05	5170
02/07/2013	09:15:06	5320
02/07/2013	09:15:07	5120
02/07/2013	09:15:08	5440
02/07/2013	09:15:09	5190
02/07/2013	09:15:10	5260
02/07/2013	09:15:11	4970
02/07/2013	09:15:12	5480
02/07/2013	09:15:13	5180
02/07/2013	09:15:14	5250
02/07/2013	09:15:15	5120
02/07/2013	09:15:16	5070
02/07/2013	09:15:17	5090
02/07/2013	09:15:18	4940
02/07/2013	09:15:19	5110
02/07/2013	09:15:20	5000
02/07/2013	09:15:21	5070
02/07/2013	09:15:22	4940
02/07/2013	09:15:23	5320
02/07/2013	09:15:24	5100
02/07/2013	09:15:25	5200
02/07/2013	09:15:26	5260
02/07/2013	09:15:27	5010
02/07/2013	09:15:28	5260
02/07/2013	09:15:29	5040
02/07/2013	09:15:30	5280
02/07/2013	09:15:31	5070
02/07/2013	09:15:32	5170
02/07/2013	09:15:33	5210
02/07/2013	09:15:34	5150
02/07/2013	09:15:35	5310
02/07/2013	09:15:36	5020
02/07/2013	09:15:37	5310
02/07/2013	09:15:38	5110
02/07/2013	09:15:39	5340
02/07/2013	09:15:40	5090
02/07/2013	09:15:41	5080
02/07/2013	09:15:42	5160
02/07/2013	09:15:43	4970
02/07/2013	09:15:44	5230
02/07/2013	09:15:45	5080
02/07/2013	09:15:46	5300
02/07/2013	09:15:47	5030
02/07/2013	09:15:48	5140
02/07/2013	09:15:49	5100
02/07/2013	09:15:50	5070
02/07/2013	09:15:51	5330
02/07/2013	09:15:52	4980
02/07/2013	09:15:53	5180
02/07/2013	09:15:54	5120
02/07/2013	09:15:55	5270
02/07/2013	09:15:56	5130
02/07/2013	09:15:57	5120
02/07/2013	09:15:58	5210
02/07/2013	09:15:59	4920
02/07/2013	09:16:00	5290
02/07/2013	09:16:01	5080
02/07/2013	09:16:02	5240
02/07/2013	09:16:03	5150
02/07/2013	09:16:04	5050
02/07/2013	09:16:05	5170
02/07/2013	09:16:06	4890
02/07/2013	09:16:07	5350
02/07/2013	09:16:08	5150
02/07/2013	09:16:09	5050
02/07/2013	09:16:10	5080
02/07/2013	09:16:11	4670
02/07/2013	09:16:12	5110
02/07/2013	09:16:13	5080
02/07/2013	09:16:14	5190
02/07/2013	09:16:15	5140
02/07/2013	09:16:16	5080
02/07/2013	09:16:17	5210
02/07/2013	09:16:18	4890
02/07/2013	09:16:19	5120
02/07/2013	09:16:20	5050
02/07/2013	09:16:21	4990
02/07/2013	09:16:22	5140
02/07/2013	09:16:23	4840
02/07/2013	09:16:24	5090
02/07/2013	09:16:25	4890
02/07/2013	09:16:26	4960
02/07/2013	09:16:27	5120
02/07/2013	09:16:28	4880
02/07/2013	09:16:29	5120
02/07/2013	09:16:30	4960
02/07/2013	09:16:31	5040
02/07/2013	09:16:32	5160
02/07/2013	09:16:33	4680
02/07/2013	09:16:34	4820
02/07/2013	09:16:35	5060
02/07/2013	09:16:36	4810
02/07/2013	09:16:37	5060
02/07/2013	09:16:38	4820
02/07/2013	09:16:39	5060
02/07/2013	09:16:40	4980
02/07/2013	09:16:41	5000
02/07/2013	09:16:42	5160
02/07/2013	09:16:43	4920
02/07/2013	09:16:44	5000
02/07/2013	09:16:45	5080
02/07/2013	09:16:46	4930
02/07/2013	09:16:47	5160
02/07/2013	09:16:48	4930
02/07/2013	09:16:49	5030
02/07/2013	09:16:50	5060
02/07/2013	09:16:51	4810
02/07/2013	09:16:52	5210
02/07/2013	09:16:53	4890
02/07/2013	09:16:54	4780
02/07/2013	09:16:55	5010
02/07/2013	09:16:56	4760
02/07/2013	09:16:57	5080
02/07/2013	09:16:58	4980
02/07/2013	09:16:59	4890
02/07/2013	09:17:00	5010
02/07/2013	09:17:01	4740
02/07/2013	09:17:02	4960
02/07/2013	09:17:03	4940
02/07/2013	09:17:04	4900
02/07/2013	09:17:05	5050
02/07/2013	09:17:06	4860
02/07/2013	09:17:07	5030
02/07/2013	09:17:08	5000
02/07/2013	09:17:09	4760
02/07/2013	09:17:10	5090
02/07/2013	09:17:11	4930
02/07/2013	09:17:12	4890
02/07/2013	09:17:13	5110
02/07/2013	09:17:14	4810
02/07/2013	09:17:15	4990
02/07/2013	09:17:16	4970
02/07/2013	09:17:17	4790
02/07/2013	09:17:18	4950
02/07/2013	09:17:19	4870
02/07/2013	09:17:20	4910
02/07/2013	09:17:21	5100
02/07/2013	09:17:22	4730
02/07/2013	09:17:23	5050
02/07/2013	09:17:24	5070
02/07/2013	09:17:25	4880
02/07/2013	09:17:26	5080
02/07/2013	09:17:27	4860
02/07/2013	09:17:28	4780
02/07/2013	09:17:29	5100
02/07/2013	09:17:30	4780
02/07/2013	09:17:31	5000
02/07/2013	09:17:32	5030
02/07/2013	09:17:33	4690
02/07/2013	09:17:34	4880
02/07/2013	09:17:35	4910
02/07/2013	09:17:36	4670
02/07/2013	09:17:37	5000
02/07/2013	09:17:38	4840
02/07/2013	09:17:39	4650
02/07/2013	09:17:40	4850
02/07/2013	09:17:41	4880
02/07/2013	09:17:42	4840
02/07/2013	09:17:43	4970
02/07/2013	09:17:44	4770
02/07/2013	09:17:45	4850
02/07/2013	09:17:46	4990
02/07/2013	09:17:47	4760
02/07/2013	09:17:48	4910
02/07/2013	09:17:49	4890
02/07/2013	09:17:50	4560
02/07/2013	09:17:51	4810
02/07/2013	09:17:52	5000
02/07/2013	09:17:53	4760
02/07/2013	09:17:54	4990
02/07/2013	09:17:55	4890
02/07/2013	09:17:56	4700
02/07/2013	09:17:57	4990
02/07/2013	09:17:58	5060
02/07/2013	09:17:59	4770
02/07/2013	09:18:00	4930
02/07/2013	09:18:01	4930
02/07/2013	09:18:02	4760
02/07/2013	09:18:03	5020
02/07/2013	09:18:04	4970
02/07/2013	09:18:05	4690
02/07/2013	09:18:06	4970
02/07/2013	09:18:07	4910
02/07/2013	09:18:08	4630
02/07/2013	09:18:09	4760
02/07/2013	09:18:10	4880
02/07/2013	09:18:11	4690
02/07/2013	09:18:12	4930
02/07/2013	09:18:13	4800
02/07/2013	09:18:14	4040
02/07/2013	09:18:15	4560
02/07/2013	09:18:16	4890
02/07/2013	09:18:17	4720
02/07/2013	09:18:18	4570
02/07/2013	09:18:19	4980
02/07/2013	09:18:20	4950
02/07/2013	09:18:21	4810
02/07/2013	09:18:22	4900
02/07/2013	09:18:23	4920
02/07/2013	09:18:24	4710
02/07/2013	09:18:25	5000
02/07/2013	09:18:26	4800
02/07/2013	09:18:27	4680
02/07/2013	09:18:28	4890
02/07/2013	09:18:29	4990
02/07/2013	09:18:30	4760
02/07/2013	09:18:31	5020
02/07/2013	09:18:32	4980
02/07/2013	09:18:33	4860
02/07/2013	09:18:34	4970
02/07/2013	09:18:35	5060
02/07/2013	09:18:36	4780
02/07/2013	09:18:37	4790
02/07/2013	09:18:38	4930
02/07/2013	09:18:39	4760
02/07/2013	09:18:40	4530
02/07/2013	09:18:41	4880
02/07/2013	09:18:42	4810
02/07/2013	09:18:43	4500
02/07/2013	09:18:44	4880
02/07/2013	09:18:45	4650
02/07/2013	09:18:46	4130
02/07/2013	09:18:47	4420
02/07/2013	09:18:48	4730
02/07/2013	09:18:49	4640
02/07/2013	09:18:50	4750
02/07/2013	09:18:51	4870
02/07/2013	09:18:52	4480
02/07/2013	09:18:53	4690
02/07/2013	09:18:54	4840
02/07/2013	09:18:55	4580
02/07/2013	09:18:56	4550
02/07/2013	09:18:57	4760
02/07/2013	09:18:58	4770
02/07/2013	09:18:59	4590
02/07/2013	09:19:00	4790
02/07/2013	09:19:01	4610
02/07/2013	09:19:02	4510
02/07/2013	09:19:03	4740
02/07/2013	09:19:04	4720
02/07/2013	09:19:05	4320
02/07/2013	09:19:06	4550
02/07/2013	09:19:07	4430
02/07/2013	09:19:08	4400
02/07/2013	09:19:09	4590
02/07/2013	09:19:10	4680
02/07/2013	09:19:11	4560
02/07/2013	09:19:12	4480
02/07/2013	09:19:13	4560
02/07/2013	09:19:14	4680
02/07/2013	09:19:15	4340
02/07/2013	09:19:16	4260
02/07/2013	09:19:17	4220
02/07/2013	09:19:18	4280
02/07/2013	09:19:19	4560
02/07/2013	09:19:20	4740
02/07/2013	09:19:21	4640
02/07/2013	09:19:22	4600
02/07/2013	09:19:23	4700
02/07/2013	09:19:24	4630
02/07/2013	09:19:25	4500
02/07/2013	09:19:26	4680
02/07/2013	09:19:27	4790
02/07/2013	09:19:28	4500
02/07/2013	09:19:29	4560
02/07/2013	09:19:30	4710
02/07/2013	09:19:31	4720
02/07/2013	09:19:32	4450
02/07/2013	09:19:33	4710
02/07/2013	09:19:34	4590
02/07/2013	09:19:35	4580
02/07/2013	09:19:36	4590
02/07/2013	09:19:37	4860
02/07/2013	09:19:38	4710
02/07/2013	09:19:39	4500
02/07/2013	09:19:40	4680
02/07/2013	09:19:41	4720
02/07/2013	09:19:42	4590
02/07/2013	09:19:43	4520
02/07/2013	09:19:44	4660
02/07/2013	09:19:45	4720
02/07/2013	09:19:46	4410
02/07/2013	09:19:47	4620
02/07/2013	09:19:48	4820
02/07/2013	09:19:49	4620
02/07/2013	09:19:50	4140
02/07/2013	09:19:51	4560
02/07/2013	09:19:52	4540
02/07/2013	09:19:53	4530
02/07/2013	09:19:54	4600
02/07/2013	09:19:55	4720
02/07/2013	09:19:56	4490
02/07/2013	09:19:57	4430
02/07/2013	09:19:58	4550
02/07/2013	09:19:59	4700
02/07/2013	09:20:00	4680
02/07/2013	09:20:01	4430
02/07/2013	09:20:02	4710
02/07/2013	09:20:03	4740
02/07/2013	09:20:04	4430
02/07/2013	09:20:05	4450
02/07/2013	09:20:06	4740
02/07/2013	09:20:07	4490
02/07/2013	09:20:08	4260
02/07/2013	09:20:09	4300
02/07/2013	09:20:10	4560
02/07/2013	09:20:11	4630
02/07/2013	09:20:12	4410
02/07/2013	09:20:13	4370
02/07/2013	09:20:14	4580
02/07/2013	09:20:15	4570
02/07/2013	09:20:16	4460
02/07/2013	09:20:17	4530
02/07/2013	09:20:18	4700
02/07/2013	09:20:19	4490
02/07/2013	09:20:20	4340
02/07/2013	09:20:21	4650
02/07/2013	09:20:22	4560
02/07/2013	09:20:23	4510
02/07/2013	09:20:24	4370
02/07/2013	09:20:25	4580
02/07/2013	09:20:26	4540
02/07/2013	09:20:27	4460
02/07/2013	09:20:28	4350
02/07/2013	09:20:29	4510
02/07/2013	09:20:30	4620
02/07/2013	09:20:31	4360
02/07/2013	09:20:32	4460
02/07/2013	09:20:33	4450
02/07/2013	09:20:34	4350
02/07/2013	09:20:35	4280
02/07/2013	09:20:36	4310
02/07/2013	09:20:37	4400
02/07/2013	09:20:38	4500
02/07/2013	09:20:39	4430
02/07/2013	09:20:40	4460
02/07/2013	09:20:41	4660
02/07/2013	09:20:42	4560
02/07/2013	09:20:43	4400
02/07/2013	09:20:44	4490
02/07/2013	09:20:45	4660
02/07/2013	09:20:46	4570
02/07/2013	09:20:47	4340
02/07/2013	09:20:48	4460
02/07/2013	09:20:49	4580
02/07/2013	09:20:50	4570
02/07/2013	09:20:51	4460
02/07/2013	09:20:52	4390
02/07/2013	09:20:53	4570
02/07/2013	09:20:54	4600
02/07/2013	09:20:55	4350
02/07/2013	09:20:56	4470
02/07/2013	09:20:57	4530
02/07/2013	09:20:58	4560
02/07/2013	09:20:59	4450
02/07/2013	09:21:00	4430
02/07/2013	09:21:01	4520
02/07/2013	09:21:02	4410
02/07/2013	09:21:03	4410
02/07/2013	09:21:04	4280
02/07/2013	09:21:05	4620
02/07/2013	09:21:06	4590
02/07/2013	09:21:07	4360
02/07/2013	09:21:08	4380
02/07/2013	09:21:09	4450
02/07/2013	09:21:10	4570
02/07/2013	09:21:11	4560
02/07/2013	09:21:12	4400
02/07/2013	09:21:13	4410
02/07/2013	09:21:14	4520
02/07/2013	09:21:15	4480
02/07/2013	09:21:16	4330
02/07/2013	09:21:17	4550
02/07/2013	09:21:18	4560
02/07/2013	09:21:19	4370
02/07/2013	09:21:20	4110
02/07/2013	09:21:21	4070
02/07/2013	09:21:22	4140
02/07/2013	09:21:23	4130
02/07/2013	09:21:24	4010
02/07/2013	09:21:25	3970
02/07/2013	09:21:26	3860
02/07/2013	09:21:27	4340
02/07/2013	09:21:28	4230
02/07/2013	09:21:29	4380
02/07/2013	09:21:30	4470
02/07/2013	09:21:31	4410
02/07/2013	09:21:32	4280
02/07/2013	09:21:33	4270
02/07/2013	09:21:34	4550
02/07/2013	09:21:35	4250
02/07/2013	09:21:36	4080
02/07/2013	09:21:37	4170
02/07/2013	09:21:38	4440
02/07/2013	09:21:39	4530
02/07/2013	09:21:40	4260
02/07/2013	09:21:41	4200
02/07/2013	09:21:42	4500
02/07/2013	09:21:43	4590
02/07/2013	09:21:44	4330
02/07/2013	09:21:45	4280
02/07/2013	09:21:46	4440
02/07/2013	09:21:47	4310
02/07/2013	09:21:48	4270
02/07/2013	09:21:49	4420
02/07/2013	09:21:50	4500
02/07/2013	09:21:51	4460
02/07/2013	09:21:52	4340
02/07/2013	09:21:53	4330
02/07/2013	09:21:54	4410
02/07/2013	09:21:55	4420
02/07/2013	09:21:56	4140
02/07/2013	09:21:57	4110
02/07/2013	09:21:58	4350
02/07/2013	09:21:59	4300
02/07/2013	09:22:00	4280
02/07/2013	09:22:01	4240
02/07/2013	09:22:02	4470
02/07/2013	09:22:03	4350
02/07/2013	09:22:04	4140
02/07/2013	09:22:05	4150
02/07/2013	09:22:06	4180
02/07/2013	09:22:07	4360
02/07/2013	09:22:08	4200
02/07/2013	09:22:09	4100
02/07/2013	09:22:10	4210
02/07/2013	09:22:11	4450
02/07/2013	09:22:12	4370
02/07/2013	09:22:13	4200
02/07/2013	09:22:14	4380
02/07/2013	09:22:15	4320
02/07/2013	09:22:16	4270
02/07/2013	09:22:17	4040
02/07/2013	09:22:18	4380
02/07/2013	09:22:19	4330
02/07/2013	09:22:20	4080
02/07/2013	09:22:21	4190
02/07/2013	09:22:22	4300
02/07/2013	09:22:23	4390
02/07/2013	09:22:24	4140
02/07/2013	09:22:25	4300
02/07/2013	09:22:26	4350
02/07/2013	09:22:27	4320
02/07/2013	09:22:28	4140
02/07/2013	09:22:29	4380
02/07/2013	09:22:30	4480
02/07/2013	09:22:31	4280
02/07/2013	09:22:32	3980
02/07/2013	09:22:33	3630
02/07/2013	09:22:34	4240
02/07/2013	09:22:35	3950
02/07/2013	09:22:36	4260
02/07/2013	09:22:37	4260
02/07/2013	09:22:38	4140
02/07/2013	09:22:39	4190
02/07/2013	09:22:40	4390
02/07/2013	09:22:41	4220
02/07/2013	09:22:42	4220
02/07/2013	09:22:43	4350
02/07/2013	09:22:44	4240
02/07/2013	09:22:45	4140
02/07/2013	09:22:46	4420
02/07/2013	09:22:47	4310
02/07/2013	09:22:48	4050
02/07/2013	09:22:49	4340
02/07/2013	09:22:50	4270
02/07/2013	09:22:51	4100
02/07/2013	09:22:52	4380
02/07/2013	09:22:53	4420
02/07/2013	09:22:54	4310
02/07/2013	09:22:55	3990
02/07/2013	09:22:56	4110
02/07/2013	09:22:57	4280
02/07/2013	09:22:58	4350
02/07/2013	09:22:59	4140
02/07/2013	09:23:00	4200
02/07/2013	09:23:01	4370
02/07/2013	09:23:02	4300
02/07/2013	09:23:03	4080
02/07/2013	09:23:04	4280
02/07/2013	09:23:05	4120
02/07/2013	09:23:06	4080
02/07/2013	09:23:07	4300
02/07/2013	09:23:08	4150
02/07/2013	09:23:09	4160
02/07/2013	09:23:10	4400
02/07/2013	09:23:11	4020
02/07/2013	09:23:12	4030
02/07/2013	09:23:13	4380
02/07/2013	09:23:14	4310
02/07/2013	09:23:15	4050
02/07/2013	09:23:16	4180
02/07/2013	09:23:17	4080
02/07/2013	09:23:18	3920
02/07/2013	09:23:19	4210
02/07/2013	09:23:20	4210
02/07/2013	09:23:21	3800
02/07/2013	09:23:22	3860
02/07/2013	09:23:23	3860
02/07/2013	09:23:24	3590
02/07/2013	09:23:25	3790
02/07/2013	09:23:26	4060
02/07/2013	09:23:27	3950
02/07/2013	09:23:28	3980
02/07/2013	09:23:29	4160
02/07/2013	09:23:30	3880
02/07/2013	09:23:31	3800
02/07/2013	09:23:32	4000
02/07/2013	09:23:33	3930
02/07/2013	09:23:34	4000
02/07/2013	09:23:35	4280
02/07/2013	09:23:36	3850
02/07/2013	09:23:37	4240
02/07/2013	09:23:38	4090
02/07/2013	09:23:39	4000
02/07/2013	09:23:40	4160
02/07/2013	09:23:41	3810
02/07/2013	09:23:42	4250
02/07/2013	09:23:43	4210
02/07/2013	09:23:44	3940
02/07/2013	09:23:45	4160
02/07/2013	09:23:46	3900
02/07/2013	09:23:47	4180
02/07/2013	09:23:48	4080
02/07/2013	09:23:49	3990
02/07/2013	09:23:50	4190
02/07/2013	09:23:51	3910
02/07/2013	09:23:52	4110
02/07/2013	09:23:53	4030
02/07/2013	09:23:54	4160
02/07/2013	09:23:55	4160
02/07/2013	09:23:56	4040
02/07/2013	09:23:57	4160
02/07/2013	09:23:58	3960
02/07/2013	09:23:59	4160
02/07/2013	09:24:00	3850
02/07/2013	09:24:01	4130
02/07/2013	09:24:02	3890
02/07/2013	09:24:03	4260
02/07/2013	09:24:04	3950
02/07/2013	09:24:05	4130
02/07/2013	09:24:06	3890
02/07/2013	09:24:07	3910
02/07/2013	09:24:08	3340
02/07/2013	09:24:09	4030
02/07/2013	09:24:10	4140
02/07/2013	09:24:11	3990
02/07/2013	09:24:12	4120
02/07/2013	09:24:13	3980
02/07/2013	09:24:14	4080
02/07/2013	09:24:15	3880
02/07/2013	09:24:16	4220
02/07/2013	09:24:17	3760
02/07/2013	09:24:18	4120
02/07/2013	09:24:19	3860
02/07/2013	09:24:20	4120
02/07/2013	09:24:21	3950
02/07/2013	09:24:22	4120
02/07/2013	09:24:23	3870
02/07/2013	09:24:24	3940
02/07/2013	09:24:25	3850
02/07/2013	09:24:26	3700
02/07/2013	09:24:27	3860
02/07/2013	09:24:28	3810
02/07/2013	09:24:29	3960
02/07/2013	09:24:30	3780
02/07/2013	09:24:31	3980
02/07/2013	09:24:32	3750
02/07/2013	09:24:33	4000
02/07/2013	09:24:34	3710
02/07/2013	09:24:35	4050
02/07/2013	09:24:36	3650
02/07/2013	09:24:37	4130
02/07/2013	09:24:38	3840
02/07/2013	09:24:39	4050
02/07/2013	09:24:40	3940
02/07/2013	09:24:41	4060
02/07/2013	09:24:42	4040
02/07/2013	09:24:43	4060
02/07/2013	09:24:44	3970
02/07/2013	09:24:45	4000
02/07/2013	09:24:46	3890
02/07/2013	09:24:47	3800
02/07/2013	09:24:48	3810
02/07/2013	09:24:49	3920
02/07/2013	09:24:50	3880
02/07/2013	09:24:51	3850
02/07/2013	09:24:52	3730
02/07/2013	09:24:53	3900
02/07/2013	09:24:54	3630
02/07/2013	09:24:55	3730
02/07/2013	09:24:56	3640
02/07/2013	09:24:57	3670
02/07/2013	09:24:58	3930
02/07/2013	09:24:59	3950
02/07/2013	09:25:00	3820
02/07/2013	09:25:01	3620
02/07/2013	09:25:02	3910
02/07/2013	09:25:03	3790
02/07/2013	09:25:04	3850
02/07/2013	09:25:05	4070
02/07/2013	09:25:06	3810
02/07/2013	09:25:07	3920
02/07/2013	09:25:08	4060
02/07/2013	09:25:09	3760
02/07/2013	09:25:10	3940
02/07/2013	09:25:11	4050
02/07/2013	09:25:12	3750
02/07/2013	09:25:13	3990
02/07/2013	09:25:14	3880
02/07/2013	09:25:15	3760
02/07/2013	09:25:16	4050
02/07/2013	09:25:17	3840
02/07/2013	09:25:18	3760
02/07/2013	09:25:19	3920
02/07/2013	09:25:20	3810
02/07/2013	09:25:21	3810
02/07/2013	09:25:22	3920
02/07/2013	09:25:23	3550
02/07/2013	09:25:24	3630
02/07/2013	09:25:25	3880
02/07/2013	09:25:26	3660
02/07/2013	09:25:27	3650
02/07/2013	09:25:28	3690
02/07/2013	09:25:29	3430
02/07/2013	09:25:30	3500
02/07/2013	09:25:31	3200
02/07/2013	09:25:32	3580
02/07/2013	09:25:33	3970
02/07/2013	09:25:34	3710
02/07/2013	09:25:35	3800
02/07/2013	09:25:36	3880
02/07/2013	09:25:37	3600
02/07/2013	09:25:38	3710
02/07/2013	09:25:39	3810
02/07/2013	09:25:40	3600
02/07/2013	09:25:41	3820
02/07/2013	09:25:42	3790
02/07/2013	09:25:43	3560
02/07/2013	09:25:44	3640
02/07/2013	09:25:45	3600
02/07/2013	09:25:46	3550
02/07/2013	09:25:47	3860
02/07/2013	09:25:48	3570
02/07/2013	09:25:49	3470
02/07/2013	09:25:50	3950
02/07/2013	09:25:51	3620
02/07/2013	09:25:52	3670
02/07/2013	09:25:53	3750
02/07/2013	09:25:54	3530
02/07/2013	09:25:55	3640
02/07/2013	09:25:56	3570
02/07/2013	09:25:57	3230
02/07/2013	09:25:58	3540
02/07/2013	09:25:59	3410
02/07/2013	09:26:00	3350
02/07/2013	09:26:01	3680
02/07/2013	09:26:02	3760
02/07/2013	09:26:03	3570
02/07/2013	09:26:04	3750
02/07/2013	09:26:05	3480
02/07/2013	09:26:06	3570
02/07/2013	09:26:07	3650
02/07/2013	09:26:08	3500
02/07/2013	09:26:09	3640
02/07/2013	09:26:10	3710
02/07/2013	09:26:11	3650
02/07/2013	09:26:12	3740
02/07/2013	09:26:13	3770
02/07/2013	09:26:14	3710
02/07/2013	09:26:15	3580
02/07/2013	09:26:16	3610
02/07/2013	09:26:17	3760
02/07/2013	09:26:18	3760
02/07/2013	09:26:19	3780
02/07/2013	09:26:20	3750
02/07/2013	09:26:21	3710
02/07/2013	09:26:22	3670
02/07/2013	09:26:23	3750
02/07/2013	09:26:24	3780
02/07/2013	09:26:25	3770
02/07/2013	09:26:26	3680
02/07/2013	09:26:27	3580
02/07/2013	09:26:28	3500
02/07/2013	09:26:29	3570
02/07/2013	09:26:30	3600
02/07/2013	09:26:31	3630
02/07/2013	09:26:32	3630
02/07/2013	09:26:33	3550
02/07/2013	09:26:34	3680
02/07/2013	09:26:35	3680
02/07/2013	09:26:36	3760
02/07/2013	09:26:37	3710
02/07/2013	09:26:38	3800
02/07/2013	09:26:39	3740
02/07/2013	09:26:40	3710
02/07/2013	09:26:41	3680
02/07/2013	09:26:42	3700
02/07/2013	09:26:43	3830
02/07/2013	09:26:44	3790
02/07/2013	09:26:45	3710
02/07/2013	09:26:46	3580
02/07/2013	09:26:47	3700
02/07/2013	09:26:48	3720
02/07/2013	09:26:49	3880
02/07/2013	09:26:50	3820
02/07/2013	09:26:51	3810
02/07/2013	09:26:52	3740
02/07/2013	09:26:53	3580
02/07/2013	09:26:54	3640
02/07/2013	09:26:55	3810
02/07/2013	09:26:56	3850
02/07/2013	09:26:57	3710
02/07/2013	09:26:58	3610
02/07/2013	09:26:59	3680
02/07/2013	09:27:00	3730
02/07/2013	09:27:01	3770
02/07/2013	09:27:02	3720
02/07/2013	09:27:03	3630
02/07/2013	09:27:04	3650
02/07/2013	09:27:05	3600
02/07/2013	09:27:06	3710
02/07/2013	09:27:07	3630
02/07/2013	09:27:08	3770
02/07/2013	09:27:09	3700
02/07/2013	09:27:10	3650
02/07/2013	09:27:11	3630
02/07/2013	09:27:12	3750
02/07/2013	09:27:13	3800
02/07/2013	09:27:14	3590
02/07/2013	09:27:15	3680
02/07/2013	09:27:16	3650
02/07/2013	09:27:17	3590
02/07/2013	09:27:18	3790
02/07/2013	09:27:19	3790
02/07/2013	09:27:20	3720
02/07/2013	09:27:21	3520
02/07/2013	09:27:22	3610
02/07/2013	09:27:23	3600
02/07/2013	09:27:24	3710
02/07/2013	09:27:25	3770
02/07/2013	09:27:26	3680
02/07/2013	09:27:27	3550
02/07/2013	09:27:28	3580
02/07/2013	09:27:29	3540
02/07/2013	09:27:30	3490
02/07/2013	09:27:31	3620
02/07/2013	09:27:32	3700
02/07/2013	09:27:33	3350
02/07/2013	09:27:34	3280
02/07/2013	09:27:35	3400
02/07/2013	09:27:36	3630
02/07/2013	09:27:37	3670
02/07/2013	09:27:38	3720
02/07/2013	09:27:39	3690
02/07/2013	09:27:40	3630
02/07/2013	09:27:41	3610
02/07/2013	09:27:42	3630
02/07/2013	09:27:43	3750
02/07/2013	09:27:44	3740
02/07/2013	09:27:45	3680
02/07/2013	09:27:46	3600
02/07/2013	09:27:47	3680
02/07/2013	09:27:48	3690
02/07/2013	09:27:49	3780
02/07/2013	09:27:50	3710
02/07/2013	09:27:51	3750
02/07/2013	09:27:52	3640
02/07/2013	09:27:53	3590
02/07/2013	09:27:54	3610
02/07/2013	09:27:55	3860
02/07/2013	09:27:56	3690
02/07/2013	09:27:57	3620
02/07/2013	09:27:58	3650
02/07/2013	09:27:59	3660
02/07/2013	09:28:00	3680
02/07/2013	09:28:01	3770
02/07/2013	09:28:02	3730
02/07/2013	09:28:03	3670
02/07/2013	09:28:04	3540
02/07/2013	09:28:05	3660
02/07/2013	09:28:06	3720
02/07/2013	09:28:07	3730
02/07/2013	09:28:08	3770
02/07/2013	09:28:09	3770
02/07/2013	09:28:10	3630
02/07/2013	09:28:11	3600
02/07/2013	09:28:12	3730
02/07/2013	09:28:13	3640
02/07/2013	09:28:14	3750
02/07/2013	09:28:15	3680
02/07/2013	09:28:16	3630
02/07/2013	09:28:17	3580
02/07/2013	09:28:18	3710
02/07/2013	09:28:19	3660
02/07/2013	09:28:20	3710
02/07/2013	09:28:21	3770
02/07/2013	09:28:22	3560
02/07/2013	09:28:23	3600
02/07/2013	09:28:24	3580
02/07/2013	09:28:25	3700
02/07/2013	09:28:26	3760
02/07/2013	09:28:27	3640
02/07/2013	09:28:28	3680
02/07/2013	09:28:29	3470
02/07/2013	09:28:30	3500
02/07/2013	09:28:31	3680
02/07/2013	09:28:32	3720
02/07/2013	09:28:33	3730
02/07/2013	09:28:34	3700
02/07/2013	09:28:35	3590
02/07/2013	09:28:36	3530
02/07/2013	09:28:37	3810
02/07/2013	09:28:38	3720
02/07/2013	09:28:39	3650
02/07/2013	09:28:40	3690
02/07/2013	09:28:41	3630
02/07/2013	09:28:42	3620
02/07/2013	09:28:43	3650
02/07/2013	09:28:44	3650
02/07/2013	09:28:45	3650
02/07/2013	09:28:46	3680
02/07/2013	09:28:47	3480
02/07/2013	09:28:48	3460
02/07/2013	09:28:49	3480
02/07/2013	09:28:50	3650
02/07/2013	09:28:51	3730
02/07/2013	09:28:52	3580
02/07/2013	09:28:53	3620
02/07/2013	09:28:54	3570
02/07/2013	09:28:55	3650
02/07/2013	09:28:56	3640
02/07/2013	09:28:57	3620
02/07/2013	09:28:58	3600
02/07/2013	09:28:59	3570
02/07/2013	09:29:00	3570
02/07/2013	09:29:01	3700
02/07/2013	09:29:02	3610
02/07/2013	09:29:03	3590
02/07/2013	09:29:04	3310
02/07/2013	09:29:05	3400
02/07/2013	09:29:06	3510
02/07/2013	09:29:07	3630
02/07/2013	09:29:08	3650
02/07/2013	09:29:09	3570
02/07/2013	09:29:10	3620
02/07/2013	09:29:11	3650
02/07/2013	09:29:12	3700
02/07/2013	09:29:13	3680
02/07/2013	09:29:14	3540
02/07/2013	09:29:15	3690
02/07/2013	09:29:16	3640
02/07/2013	09:29:17	3600
02/07/2013	09:29:18	3670
02/07/2013	09:29:19	3630
02/07/2013	09:29:20	3530
02/07/2013	09:29:21	3600
02/07/2013	09:29:22	3620
02/07/2013	09:29:23	3680
02/07/2013	09:29:24	3600
02/07/2013	09:29:25	3540
02/07/2013	09:29:26	3400
02/07/2013	09:29:27	3370
02/07/2013	09:29:28	3350
02/07/2013	09:29:29	3410
02/07/2013	09:29:30	3300
02/07/2013	09:29:31	3440
02/07/2013	09:29:32	3330
02/07/2013	09:29:33	3200
02/07/2013	09:29:34	3420
02/07/2013	09:29:35	3350
02/07/2013	09:29:36	3080
02/07/2013	09:29:37	3230
02/07/2013	09:29:38	3400
02/07/2013	09:29:39	3510
02/07/2013	09:29:40	3390
02/07/2013	09:29:41	3420
02/07/2013	09:29:42	3270
02/07/2013	09:29:43	3440
02/07/2013	09:29:44	3350
02/07/2013	09:29:45	3450
02/07/2013	09:29:46	3470
02/07/2013	09:29:47	3530
02/07/2013	09:29:48	3580
02/07/2013	09:29:49	3410
02/07/2013	09:29:50	3380
02/07/2013	09:29:51	3260
02/07/2013	09:29:52	3360
02/07/2013	09:29:53	3280
02/07/2013	09:29:54	3380
02/07/2013	09:29:55	3470
02/07/2013	09:29:56	3480
02/07/2013	09:29:57	3490
02/07/2013	09:29:58	3450
02/07/2013	09:29:59	3390
02/07/2013	09:30:00	3550
02/07/2013	09:30:01	3550
02/07/2013	09:30:02	3550
02/07/2013	09:30:03	3450
02/07/2013	09:30:04	3580
02/07/2013	09:30:05	3470
02/07/2013	09:30:06	3520
02/07/2013	09:30:07	3550
02/07/2013	09:30:08	3570
02/07/2013	09:30:09	3550
02/07/2013	09:30:10	3370
02/07/2013	09:30:11	3400
02/07/2013	09:30:12	3550
02/07/2013	09:30:13	3390
02/07/2013	09:30:14	3450
02/07/2013	09:30:15	3610
02/07/2013	09:30:16	3570
02/07/2013	09:30:17	3510
02/07/2013	09:30:18	3530
02/07/2013	09:30:19	3550
02/07/2013	09:30:20	3590
02/07/2013	09:30:21	3540
02/07/2013	09:30:22	3490
02/07/2013	09:30:23	3580
02/07/2013	09:30:24	3450
02/07/2013	09:30:25	3540
02/07/2013	09:30:26	3570
02/07/2013	09:30:27	3620
02/07/2013	09:30:28	3510
02/07/2013	09:30:29	3470
02/07/2013	09:30:30	3510
02/07/2013	09:30:31	3520
02/07/2013	09:30:32	3480
02/07/2013	09:30:33	3530
02/07/2013	09:30:34	3580
02/07/2013	09:30:35	3460
02/07/2013	09:30:36	3610
02/07/2013	09:30:37	3540
02/07/2013	09:30:38	3620
02/07/2013	09:30:39	3610
02/07/2013	09:30:40	3520
02/07/2013	09:30:41	3520
02/07/2013	09:30:42	3560
02/07/2013	09:30:43	3530
02/07/2013	09:30:44	3590
02/07/2013	09:30:45	3570
02/07/2013	09:30:46	3540
02/07/2013	09:30:47	3440
02/07/2013	09:30:48	3540
02/07/2013	09:30:49	3470
02/07/2013	09:30:50	3530
02/07/2013	09:30:51	3590
02/07/2013	09:30:52	3580
02/07/2013	09:30:53	3570
02/07/2013	09:30:54	3580
02/07/2013	09:30:55	3620
02/07/2013	09:30:56	3490
02/07/2013	09:30:57	3290
02/07/2013	09:30:58	3240
02/07/2013	09:30:59	3370
02/07/2013	09:31:00	3540
02/07/2013	09:31:01	3450
02/07/2013	09:31:02	3420
02/07/2013	09:31:03	3450
02/07/2013	09:31:04	3460
02/07/2013	09:31:05	3360
02/07/2013	09:31:06	3400
02/07/2013	09:31:07	3360
02/07/2013	09:31:08	3350
02/07/2013	09:31:09	3460
02/07/2013	09:31:10	3480
02/07/2013	09:31:11	3440
02/07/2013	09:31:12	3530
02/07/2013	09:31:13	3540
02/07/2013	09:31:14	3620
02/07/2013	09:31:15	3550
02/07/2013	09:31:16	3570
02/07/2013	09:31:17	3460
02/07/2013	09:31:18	3550
02/07/2013	09:31:19	3590
02/07/2013	09:31:20	3510
02/07/2013	09:31:21	3650
02/07/2013	09:31:22	3590
02/07/2013	09:31:23	3480
02/07/2013	09:31:24	3640
02/07/2013	09:31:25	3560
02/07/2013	09:31:26	3560
02/07/2013	09:31:27	3640
02/07/2013	09:31:28	3590
02/07/2013	09:31:29	3560
02/07/2013	09:31:30	3540
02/07/2013	09:31:31	3490
02/07/2013	09:31:32	3620
02/07/2013	09:31:33	3560
02/07/2013	09:31:34	3650
02/07/2013	09:31:35	3610
02/07/2013	09:31:36	3630
02/07/2013	09:31:37	3560
02/07/2013	09:31:38	3480
02/07/2013	09:31:39	3480
02/07/2013	09:31:40	3420
02/07/2013	09:31:41	3500
02/07/2013	09:31:42	3490
02/07/2013	09:31:43	3540
02/07/2013	09:31:44	3510
02/07/2013	09:31:45	3490
02/07/2013	09:31:46	3520
02/07/2013	09:31:47	3540
02/07/2013	09:31:48	3250
02/07/2013	09:31:49	3360
02/07/2013	09:31:50	3500
02/07/2013	09:31:51	3580
02/07/2013	09:31:52	3470
02/07/2013	09:31:53	3480
02/07/2013	09:31:54	3560
02/07/2013	09:31:55	3600
02/07/2013	09:31:56	3620
02/07/2013	09:31:57	3610
02/07/2013	09:31:58	3690
02/07/2013	09:31:59	3560
02/07/2013	09:32:00	3590
02/07/2013	09:32:01	3570
02/07/2013	09:32:02	3490
02/07/2013	09:32:03	3400
02/07/2013	09:32:04	3220
02/07/2013	09:32:05	3290
02/07/2013	09:32:06	3460
02/07/2013	09:32:07	3490
02/07/2013	09:32:08	3540
02/07/2013	09:32:09	3500
02/07/2013	09:32:10	3420
02/07/2013	09:32:11	3610
02/07/2013	09:32:12	3600
02/07/2013	09:32:13	3670
02/07/2013	09:32:14	3550
02/07/2013	09:32:15	3520
02/07/2013	09:32:16	3510
02/07/2013	09:32:17	3380
02/07/2013	09:32:18	3380
02/07/2013	09:32:19	3300
02/07/2013	09:32:20	3400
02/07/2013	09:32:21	3340
02/07/2013	09:32:22	3200
02/07/2013	09:32:23	3310
02/07/2013	09:32:24	3420
02/07/2013	09:32:25	3410
02/07/2013	09:32:26	3440
02/07/2013	09:32:27	3420
02/07/2013	09:32:28	3460
02/07/2013	09:32:29	3660
02/07/2013	09:32:30	3510
02/07/2013	09:32:31	3600
02/07/2013	09:32:32	3520
02/07/2013	09:32:33	3550
02/07/2013	09:32:34	3580
02/07/2013	09:32:35	3630
02/07/2013	09:32:36	3560
02/07/2013	09:32:37	3600
02/07/2013	09:32:38	3490
02/07/2013	09:32:39	3500
02/07/2013	09:32:40	3610
02/07/2013	09:32:41	3580
02/07/2013	09:32:42	3530
02/07/2013	09:32:43	3510
02/07/2013	09:32:44	3330
02/07/2013	09:32:45	3310
02/07/2013	09:32:46	3280
02/07/2013	09:32:47	3240
02/07/2013	09:32:48	3410
02/07/2013	09:32:49	3430
02/07/2013	09:32:50	3410
02/07/2013	09:32:51	3430
02/07/2013	09:32:52	3180
02/07/2013	09:32:53	3340
02/07/2013	09:32:54	3470
02/07/2013	09:32:55	3510
02/07/2013	09:32:56	3520
02/07/2013	09:32:57	3610
02/07/2013	09:32:58	3660
02/07/2013	09:32:59	3690
02/07/2013	09:33:00	3550
02/07/2013	09:33:01	3550
02/07/2013	09:33:02	3580
02/07/2013	09:33:03	3560
02/07/2013	09:33:04	3650
02/07/2013	09:33:05	3600
02/07/2013	09:33:06	3520
02/07/2013	09:33:07	3550
02/07/2013	09:33:08	3490
02/07/2013	09:33:09	3540
02/07/2013	09:33:10	3610
02/07/2013	09:33:11	3560
02/07/2013	09:33:12	3620
02/07/2013	09:33:13	3700
02/07/2013	09:33:14	3630
02/07/2013	09:33:15	3550
02/07/2013	09:33:16	3650
02/07/2013	09:33:17	3640
02/07/2013	09:33:18	3490
02/07/2013	09:33:19	3550
02/07/2013	09:33:20	3630
02/07/2013	09:33:21	3560
02/07/2013	09:33:22	3610
02/07/2013	09:33:23	3560
02/07/2013	09:33:24	3390
02/07/2013	09:33:25	3650
02/07/2013	09:33:26	3650
02/07/2013	09:33:27	3490
02/07/2013	09:33:28	3470
02/07/2013	09:33:29	3520
02/07/2013	09:33:30	3490
02/07/2013	09:33:31	3650
02/07/2013	09:33:32	3550
02/07/2013	09:33:33	3560
02/07/2013	09:33:34	3550
02/07/2013	09:33:35	3710
02/07/2013	09:33:36	3700
02/07/2013	09:33:37	3770
02/07/2013	09:33:38	3850
02/07/2013	09:33:39	4000
02/07/2013	09:33:40	4010
02/07/2013	09:33:41	3990
02/07/2013	09:33:42	4030
02/07/2013	09:33:43	3990
02/07/2013	09:33:44	3920
02/07/2013	09:33:45	4030
02/07/2013	09:33:46	4010
02/07/2013	09:33:47	4000
02/07/2013	09:33:48	4020
02/07/2013	09:33:49	3920
02/07/2013	09:33:50	3960
02/07/2013	09:33:51	4050
02/07/2013	09:33:52	4000
02/07/2013	09:33:53	4020
02/07/2013	09:33:54	4090
02/07/2013	09:33:55	4050
02/07/2013	09:33:56	4030
02/07/2013	09:33:57	4060
02/07/2013	09:33:58	4030
02/07/2013	09:33:59	3950
02/07/2013	09:34:00	3830
02/07/2013	09:34:01	3770
02/07/2013	09:34:02	3770
02/07/2013	09:34:03	3850
02/07/2013	09:34:04	4020
02/07/2013	09:34:05	4050
02/07/2013	09:34:06	4000
02/07/2013	09:34:07	3960
02/07/2013	09:34:08	4100
02/07/2013	09:34:09	3990
02/07/2013	09:34:10	4130
02/07/2013	09:34:11	4160
02/07/2013	09:34:12	4180
02/07/2013	09:34:13	4010
02/07/2013	09:34:14	3960
02/07/2013	09:34:15	3980
02/07/2013	09:34:16	4050
02/07/2013	09:34:17	4020
02/07/2013	09:34:18	4050
02/07/2013	09:34:19	4030
02/07/2013	09:34:20	3950
02/07/2013	09:34:21	3950
02/07/2013	09:34:22	3940
02/07/2013	09:34:23	3930
02/07/2013	09:34:24	3860
02/07/2013	09:34:25	3840
02/07/2013	09:34:26	3760
02/07/2013	09:34:27	3860
02/07/2013	09:34:28	4110
02/07/2013	09:34:29	4080
02/07/2013	09:34:30	4060
02/07/2013	09:34:31	3990
02/07/2013	09:34:32	3860
02/07/2013	09:34:33	3770
02/07/2013	09:34:34	3810
02/07/2013	09:34:35	3890
02/07/2013	09:34:36	3970
02/07/2013	09:34:37	3970
02/07/2013	09:34:38	3890
02/07/2013	09:34:39	3900
02/07/2013	09:34:40	3950
02/07/2013	09:34:41	3840
02/07/2013	09:34:42	3830
02/07/2013	09:34:43	3850
02/07/2013	09:34:44	3800
02/07/2013	09:34:45	3770
02/07/2013	09:34:46	3910
02/07/2013	09:34:47	3670
02/07/2013	09:34:48	3950
02/07/2013	09:34:49	3960
02/07/2013	09:34:50	3940
02/07/2013	09:34:51	3810
02/07/2013	09:34:52	3890
02/07/2013	09:34:53	3770
02/07/2013	09:34:54	3960
02/07/2013	09:34:55	3810
02/07/2013	09:34:56	3830
02/07/2013	09:34:57	3690
02/07/2013	09:34:58	3790
02/07/2013	09:34:59	3950
02/07/2013	09:35:00	3970
02/07/2013	09:35:01	3890
02/07/2013	09:35:02	3900
02/07/2013	09:35:03	3950
02/07/2013	09:35:04	4070
02/07/2013	09:35:05	4070
02/07/2013	09:35:06	4060
02/07/2013	09:35:07	4130
02/07/2013	09:35:08	4170
02/07/2013	09:35:09	4090
02/07/2013	09:35:10	3910
02/07/2013	09:35:11	3900
02/07/2013	09:35:12	3880
02/07/2013	09:35:13	4050
02/07/2013	09:35:14	4050
02/07/2013	09:35:15	4030
02/07/2013	09:35:16	4020
02/07/2013	09:35:17	4130
02/07/2013	09:35:18	4110
02/07/2013	09:35:19	3960
02/07/2013	09:35:20	3830
02/07/2013	09:35:21	3990
02/07/2013	09:35:22	3900
02/07/2013	09:35:23	3830
02/07/2013	09:35:24	3750
02/07/2013	09:35:25	3700
02/07/2013	09:35:26	3910
02/07/2013	09:35:27	3860
02/07/2013	09:35:28	3980
02/07/2013	09:35:29	3860
02/07/2013	09:35:30	4010
02/07/2013	09:35:31	3940
02/07/2013	09:35:32	3880
02/07/2013	09:35:33	3960
02/07/2013	09:35:34	4150
02/07/2013	09:35:35	4170
02/07/2013	09:35:36	4250
02/07/2013	09:35:37	4100
02/07/2013	09:35:38	4210
02/07/2013	09:35:39	4180
02/07/2013	09:35:40	4150
02/07/2013	09:35:41	4100
02/07/2013	09:35:42	4070
02/07/2013	09:35:43	4090
02/07/2013	09:35:44	4070
02/07/2013	09:35:45	3880
02/07/2013	09:35:46	4020
02/07/2013	09:35:47	4110
02/07/2013	09:35:48	4170
02/07/2013	09:35:49	4180
02/07/2013	09:35:50	4050
02/07/2013	09:35:51	4110
02/07/2013	09:35:52	4130
02/07/2013	09:35:53	4020
02/07/2013	09:35:54	3900
02/07/2013	09:35:55	4050
02/07/2013	09:35:56	4070
02/07/2013	09:35:57	3820
02/07/2013	09:35:58	4080
02/07/2013	09:35:59	4000
02/07/2013	09:36:00	3980
02/07/2013	09:36:01	4020
02/07/2013	09:36:02	3990
02/07/2013	09:36:03	4050
02/07/2013	09:36:04	4070
02/07/2013	09:36:05	4040
02/07/2013	09:36:06	4190
02/07/2013	09:36:07	4280
02/07/2013	09:36:08	4150
02/07/2013	09:36:09	4210
02/07/2013	09:36:10	4080
02/07/2013	09:36:11	3960
02/07/2013	09:36:12	3670
02/07/2013	09:36:13	3660
02/07/2013	09:36:14	3680
02/07/2013	09:36:15	3920
02/07/2013	09:36:16	4130
02/07/2013	09:36:17	4200
02/07/2013	09:36:18	4230
02/07/2013	09:36:19	4220
02/07/2013	09:36:20	4130
02/07/2013	09:36:21	4170
02/07/2013	09:36:22	4160
02/07/2013	09:36:23	4150
02/07/2013	09:36:24	4120
02/07/2013	09:36:25	4090
02/07/2013	09:36:26	4130
02/07/2013	09:36:27	4110
02/07/2013	09:36:28	4130
02/07/2013	09:36:29	4260
02/07/2013	09:36:30	4230
02/07/2013	09:36:31	4190
02/07/2013	09:36:32	4180
02/07/2013	09:36:33	4120
02/07/2013	09:36:34	4260
02/07/2013	09:36:35	4230
02/07/2013	09:36:36	4200
02/07/2013	09:36:37	4180
02/07/2013	09:36:38	4120
02/07/2013	09:36:39	4030
02/07/2013	09:36:40	4180
02/07/2013	09:36:41	4190
02/07/2013	09:36:42	4140
02/07/2013	09:36:43	4210
02/07/2013	09:36:44	4180
02/07/2013	09:36:45	4200
02/07/2013	09:36:46	4200
02/07/2013	09:36:47	4260
02/07/2013	09:36:48	4220
02/07/2013	09:36:49	4210
02/07/2013	09:36:50	4330
02/07/2013	09:36:51	4280
02/07/2013	09:36:52	4260
02/07/2013	09:36:53	4100
02/07/2013	09:36:54	4160
02/07/2013	09:36:55	4030
02/07/2013	09:36:56	4090
02/07/2013	09:36:57	4160
02/07/2013	09:36:58	4210
02/07/2013	09:36:59	4110
02/07/2013	09:37:00	3930
02/07/2013	09:37:01	4060
02/07/2013	09:37:02	4020
02/07/2013	09:37:03	4140
02/07/2013	09:37:04	4220
02/07/2013	09:37:05	4220
02/07/2013	09:37:06	4190
02/07/2013	09:37:07	4200
02/07/2013	09:37:08	4190
02/07/2013	09:37:09	4240
02/07/2013	09:37:10	4250
02/07/2013	09:37:11	4140
02/07/2013	09:37:12	4300
02/07/2013	09:37:13	4180
02/07/2013	09:37:14	4310
02/07/2013	09:37:15	4230
02/07/2013	09:37:16	4220
02/07/2013	09:37:17	4130
02/07/2013	09:37:18	4190
02/07/2013	09:37:19	4140
02/07/2013	09:37:20	4150
02/07/2013	09:37:21	4200
02/07/2013	09:37:22	4260
02/07/2013	09:37:23	4240
02/07/2013	09:37:24	4230
02/07/2013	09:37:25	4170
02/07/2013	09:37:26	4260
02/07/2013	09:37:27	4230
02/07/2013	09:37:28	4250
02/07/2013	09:37:29	4130
02/07/2013	09:37:30	4090
02/07/2013	09:37:31	4110
02/07/2013	09:37:32	4210
02/07/2013	09:37:33	4180
02/07/2013	09:37:34	4240
02/07/2013	09:37:35	4150
02/07/2013	09:37:36	4160
02/07/2013	09:37:37	4350
02/07/2013	09:37:38	4210
02/07/2013	09:37:39	4330
02/07/2013	09:37:40	4270
02/07/2013	09:37:41	4190
02/07/2013	09:37:42	4210
02/07/2013	09:37:43	4230
02/07/2013	09:37:44	4370
02/07/2013	09:37:45	4320
02/07/2013	09:37:46	4250
02/07/2013	09:37:47	4170
02/07/2013	09:37:48	4180
02/07/2013	09:37:49	4280
02/07/2013	09:37:50	4270
02/07/2013	09:37:51	4110
02/07/2013	09:37:52	4220
02/07/2013	09:37:53	4150
02/07/2013	09:37:54	4250
02/07/2013	09:37:55	4330
02/07/2013	09:37:56	4220
02/07/2013	09:37:57	4250
02/07/2013	09:37:58	4210
02/07/2013	09:37:59	4210
02/07/2013	09:38:00	4200
02/07/2013	09:38:01	4220
02/07/2013	09:38:02	4200
02/07/2013	09:38:03	4150
02/07/2013	09:38:04	4260
02/07/2013	09:38:05	4260
02/07/2013	09:38:06	4220
02/07/2013	09:38:07	4260
02/07/2013	09:38:08	4130
02/07/2013	09:38:09	4110
02/07/2013	09:38:10	4220
02/07/2013	09:38:11	4080
02/07/2013	09:38:12	4060
02/07/2013	09:38:13	4090
02/07/2013	09:38:14	4140
02/07/2013	09:38:15	4050
02/07/2013	09:38:16	4030
02/07/2013	09:38:17	3990
02/07/2013	09:38:18	3670
02/07/2013	09:38:19	3690
02/07/2013	09:38:20	3760
02/07/2013	09:38:21	3900
02/07/2013	09:38:22	3950
02/07/2013	09:38:23	4160
02/07/2013	09:38:24	4170
02/07/2013	09:38:25	4090
02/07/2013	09:38:26	4080
02/07/2013	09:38:27	4090
02/07/2013	09:38:28	4180
02/07/2013	09:38:29	4180
02/07/2013	09:38:30	4260
02/07/2013	09:38:31	4180
02/07/2013	09:38:32	4280
02/07/2013	09:38:33	4210
02/07/2013	09:38:34	4250
02/07/2013	09:38:35	4260
02/07/2013	09:38:36	4210
02/07/2013	09:38:37	4130
02/07/2013	09:38:38	4290
02/07/2013	09:38:39	4200
02/07/2013	09:38:40	4060
02/07/2013	09:38:41	4010
02/07/2013	09:38:42	4160
02/07/2013	09:38:43	4110
02/07/2013	09:38:44	4190
02/07/2013	09:38:45	4160
02/07/2013	09:38:46	4180
02/07/2013	09:38:47	4150
02/07/2013	09:38:48	4170
02/07/2013	09:38:49	4260
02/07/2013	09:38:50	4220
02/07/2013	09:38:51	4470
02/07/2013	09:38:52	4440
02/07/2013	09:38:53	4540
02/07/2013	09:38:54	4410
02/07/2013	09:38:55	4280
02/07/2013	09:38:56	4320
02/07/2013	09:38:57	4280
02/07/2013	09:38:58	4410
02/07/2013	09:38:59	4450
02/07/2013	09:39:00	4170
02/07/2013	09:39:01	4000
02/07/2013	09:39:02	3920
02/07/2013	09:39:03	4030
02/07/2013	09:39:04	4020
02/07/2013	09:39:05	3960
02/07/2013	09:39:06	3820
02/07/2013	09:39:07	3490
02/07/2013	09:39:08	3540
02/07/2013	09:39:09	3790
02/07/2013	09:39:10	3990
02/07/2013	09:39:11	4070
02/07/2013	09:39:12	4080
02/07/2013	09:39:13	4060
02/07/2013	09:39:14	4080
02/07/2013	09:39:15	4020
02/07/2013	09:39:16	3950
02/07/2013	09:39:17	4110
02/07/2013	09:39:18	4080
02/07/2013	09:39:19	4030
02/07/2013	09:39:20	4040
02/07/2013	09:39:21	4060
02/07/2013	09:39:22	4270
02/07/2013	09:39:23	4220
02/07/2013	09:39:24	4310
02/07/2013	09:39:25	4290
02/07/2013	09:39:26	4130
02/07/2013	09:39:27	4260
02/07/2013	09:39:28	4330
02/07/2013	09:39:29	5310
02/07/2013	09:39:30	4260
02/07/2013	09:39:31	4070
02/07/2013	09:39:32	4190
02/07/2013	09:39:33	4280
02/07/2013	09:39:34	4070
02/07/2013	09:39:35	4140
02/07/2013	09:39:36	4080
02/07/2013	09:39:37	4110
02/07/2013	09:39:38	4170
02/07/2013	09:39:39	4090
02/07/2013	09:39:40	4010
02/07/2013	09:39:41	4120
02/07/2013	09:39:42	4090
02/07/2013	09:39:43	4030
02/07/2013	09:39:44	4100
02/07/2013	09:39:45	3980
02/07/2013	09:39:46	4030
02/07/2013	09:39:47	3980
02/07/2013	09:39:48	3940
02/07/2013	09:39:49	3950
02/07/2013	09:39:50	3950
02/07/2013	09:39:51	3970
02/07/2013	09:39:52	4050
02/07/2013	09:39:53	4020
02/07/2013	09:39:54	4050
02/07/2013	09:39:55	4020
02/07/2013	09:39:56	4050
02/07/2013	09:39:57	4120
02/07/2013	09:39:58	4040
02/07/2013	09:39:59	4070
02/07/2013	09:40:00	4050
02/07/2013	09:40:01	4030
02/07/2013	09:40:02	4060
02/07/2013	09:40:03	4080
02/07/2013	09:40:04	4130
02/07/2013	09:40:05	4110
02/07/2013	09:40:06	4110
02/07/2013	09:40:07	4210
02/07/2013	09:40:08	4240
02/07/2013	09:40:09	4100
02/07/2013	09:40:10	4000
02/07/2013	09:40:11	3800
02/07/2013	09:40:12	3830
02/07/2013	09:40:13	3800
02/07/2013	09:40:14	3930
02/07/2013	09:40:15	3900
02/07/2013	09:40:16	3830
02/07/2013	09:40:17	3810
02/07/2013	09:40:18	3960
02/07/2013	09:40:19	3910
02/07/2013	09:40:20	3980
02/07/2013	09:40:21	3970
02/07/2013	09:40:22	3930
02/07/2013	09:40:23	3820
02/07/2013	09:40:24	3830
02/07/2013	09:40:25	3920
02/07/2013	09:40:26	3940
02/07/2013	09:40:27	3920
02/07/2013	09:40:28	3980
02/07/2013	09:40:29	4060
02/07/2013	09:40:30	3890
02/07/2013	09:40:31	3870
02/07/2013	09:40:32	3810
02/07/2013	09:40:33	3800
02/07/2013	09:40:34	3750
02/07/2013	09:40:35	3740
02/07/2013	09:40:36	3780
02/07/2013	09:40:37	3580
02/07/2013	09:40:38	3830
02/07/2013	09:40:39	3960
02/07/2013	09:40:40	4300
02/07/2013	09:40:41	3880
02/07/2013	09:40:42	3880
02/07/2013	09:40:43	5020
02/07/2013	09:40:44	4120
02/07/2013	09:40:45	3930
02/07/2013	09:40:46	3860
02/07/2013	09:40:47	4380
02/07/2013	09:40:48	4030
02/07/2013	09:40:49	4030
02/07/2013	09:40:50	3980
02/07/2013	09:40:51	4030
02/07/2013	09:40:52	3930
02/07/2013	09:40:53	3960
02/07/2013	09:40:54	3910
02/07/2013	09:40:55	3970
02/07/2013	09:40:56	4020
02/07/2013	09:40:57	3870
02/07/2013	09:40:58	3850
02/07/2013	09:40:59	3900
02/07/2013	09:41:00	3850
02/07/2013	09:41:01	3830
02/07/2013	09:41:02	3830
02/07/2013	09:41:03	3830
02/07/2013	09:41:04	3910
02/07/2013	09:41:05	3940
02/07/2013	09:41:06	3840
02/07/2013	09:41:07	3930
02/07/2013	09:41:08	3930
02/07/2013	09:41:09	3910
02/07/2013	09:41:10	3810
02/07/2013	09:41:11	3860
02/07/2013	09:41:12	3850
02/07/2013	09:41:13	3780
02/07/2013	09:41:14	3820
02/07/2013	09:41:15	3860
02/07/2013	09:41:16	3850
02/07/2013	09:41:17	3760
02/07/2013	09:41:18	3800
02/07/2013	09:41:19	3860
02/07/2013	09:41:20	3790
02/07/2013	09:41:21	3670
02/07/2013	09:41:22	3700
02/07/2013	09:41:23	3770
02/07/2013	09:41:24	3660
02/07/2013	09:41:25	3620
02/07/2013	09:41:26	4950
02/07/2013	09:41:27	4010
02/07/2013	09:41:28	4120
02/07/2013	09:41:29	4050
02/07/2013	09:41:30	3840
02/07/2013	09:41:31	3870
02/07/2013	09:41:32	4240
02/07/2013	09:41:33	4510
02/07/2013	09:41:34	3890
02/07/2013	09:41:35	3830
02/07/2013	09:41:36	3800
02/07/2013	09:41:37	3790
02/07/2013	09:41:38	3720
02/07/2013	09:41:39	3750
02/07/2013	09:41:40	3660
02/07/2013	09:41:41	3710
02/07/2013	09:41:42	3720
02/07/2013	09:41:43	3670
02/07/2013	09:41:44	3650
02/07/2013	09:41:45	3910
02/07/2013	09:41:46	3960
02/07/2013	09:41:47	3790
02/07/2013	09:41:48	3830
02/07/2013	09:41:49	3870
02/07/2013	09:41:50	3960
02/07/2013	09:41:51	3870
02/07/2013	09:41:52	3920
02/07/2013	09:41:53	3950
02/07/2013	09:41:54	3920
02/07/2013	09:41:55	3950
02/07/2013	09:41:56	4020
02/07/2013	09:41:57	3890
02/07/2013	09:41:58	4020
02/07/2013	09:41:59	3920
02/07/2013	09:42:00	3990
